-25.9607 7.37834 85.7036
-25.9991 7.75729 85.345
-26.0823 7.71378 85.7036
-25.5082 7.42186 85.345
-25.5914 7.37834 85.7036
-25.6298 7.75729 85.345
-25.713 7.71378 85.7036
-25.8775 7.42186 85.345
-25.6746 7.33483 86.0622
-25.7962 7.67027 86.0622
-25.7515 8.09273 85.345
-25.8347 8.04922 85.7036
-25.9179 8.0057 86.0622
-25.3866 7.08642 85.345
-25.4698 7.04291 85.7036
-25.0558 7.46537 84.9865
-25.139 7.42186 85.345
-25.2222 7.37834 85.7036
-25.2606 7.75729 85.345
-25.3438 7.71378 85.7036
-25.553 6.99939 86.0622
-25.3054 7.33483 86.0622
-25.427 7.67027 86.0622
-25.1774 7.80081 84.9865
-25.3822 8.09273 85.345
-25.4654 8.04922 85.7036
-25.5486 8.0057 86.0622
-25.3885 7.29132 86.4208
-25.5102 7.62675 86.4208
-25.6318 7.96219 86.4208
-25.587 8.38465 85.7036
-25.6702 8.34114 86.0622
-25.0173 7.08642 85.345
-25.1005 7.04291 85.7036
-25.1837 6.99939 86.0622
-24.7697 7.42186 85.345
-24.8913 7.75729 85.345
-24.8529 7.37834 85.7036
-24.9745 7.71378 85.7036
-24.9361 7.33483 86.0622
-25.0577 7.67027 86.0622
-25.013 8.09273 85.345
-25.0962 8.04922 85.7036
-25.1794 8.0057 86.0622
-25.0193 7.29132 86.4208
-25.1409 7.62675 86.4208
-25.2625 7.96219 86.4208
-25.1346 8.42817 85.345
-25.2178 8.38465 85.7036
-25.301 8.34114 86.0622
-24.6481 7.08642 85.345
-24.7313 7.04291 85.7036
-24.8145 6.99939 86.0622
-24.4005 7.42186 85.345
-24.4837 7.37834 85.7036
-24.5221 7.75729 85.345
-24.6053 7.71378 85.7036
-24.6437 8.09273 85.345
-24.7269 8.04922 85.7036
-24.5669 7.33483 86.0622
-24.6885 7.67027 86.0622
-24.8101 8.0057 86.0622
-24.7717 7.62675 86.4208
-24.8933 7.96219 86.4208
-24.8485 8.38465 85.7036
-24.9317 8.34114 86.0622
-24.0312 7.42186 85.345
-24.1528 7.75729 85.345
-24.236 7.71378 85.7036
-24.3192 7.67027 86.0622
-24.2745 8.09273 85.345
-24.3577 8.04922 85.7036
-24.4409 8.0057 86.0622
-24.3961 8.42817 85.345
-24.4793 8.38465 85.7036
-24.5625 8.34114 86.0622
-24.524 7.96219 86.4208
-23.5788 7.46537 84.9865
-23.662 7.42186 85.345
-23.7836 7.75729 85.345
-23.8668 7.71378 85.7036
-23.7004 7.80081 84.9865
-23.9052 8.09273 85.345
-23.9884 8.04922 85.7036
-23.95 7.67027 86.0622
-24.0716 8.0057 86.0622
-24.1548 7.96219 86.4208
-23.822 8.13624 84.9865
-24.0268 8.42817 85.345
-24.11 8.38465 85.7036
-24.1932 8.34114 86.0622
-24.2764 8.29762 86.4208
-23.9436 8.47168 84.9865
-24.1485 8.7636 85.345
-24.2317 8.72009 85.7036
-24.3149 8.67658 86.0622
-23.3739 7.17345 84.6279
-23.4571 7.12993 84.9865
-23.5403 7.08642 85.345
-23.4956 7.50888 84.6279
-23.1263 7.50888 84.6279
-23.2095 7.46537 84.9865
-23.2927 7.42186 85.345
-23.3311 7.80081 84.9865
-23.4143 7.75729 85.345
-23.3759 7.37834 85.7036
-23.4975 7.71378 85.7036
-23.536 8.09273 85.345
-23.6192 8.04922 85.7036
-23.7024 8.0057 86.0622
-23.2479 7.84432 84.6279
-23.4528 8.13624 84.9865
-23.6576 8.42817 85.345
-23.7408 8.38465 85.7036
-23.824 8.34114 86.0622
-23.7855 7.96219 86.4208
-23.9072 8.29762 86.4208
-23.5744 8.47168 84.9865
-24.0653 8.80712 84.9865
-23.7792 8.7636 85.345
-23.8624 8.72009 85.7036
-23.9456 8.67658 86.0622
-23.9821 8.85063 84.6279
-23.696 8.80712 84.9865
-24.1869 9.14255 84.9865
-24.2701 9.09904 85.345
-23.9008 9.09904 85.345
-23.984 9.05553 85.7036
-23.2523 6.83801 84.6279
-23.3355 6.7945 84.9865
-23.2907 7.21696 84.2693
-23.4124 7.5524 84.2693
-22.9215 7.21696 84.2693
-23.0047 7.17345 84.6279
-23.0879 7.12993 84.9865
-23.7048 6.7945 84.9865
-23.4187 6.75098 85.345
-23.1711 7.08642 85.345
-23.0431 7.5524 84.2693
-23.1647 7.88783 84.2693
-22.6739 7.5524 84.2693
-22.7571 7.50888 84.6279
-22.8403 7.46537 84.9865
-22.8787 7.84432 84.6279
-22.9619 7.80081 84.9865
-22.9235 7.42186 85.345
-23.0451 7.75729 85.345
-23.0067 7.37834 85.7036
-23.1283 7.71378 85.7036
-23.0835 8.13624 84.9865
-23.1667 8.09273 85.345
-23.2499 8.04922 85.7036
-23.3331 8.0057 86.0622
-23.2883 8.42817 85.345
-23.3715 8.38465 85.7036
-23.4547 8.34114 86.0622
-23.5379 8.29762 86.4208
-23.2864 8.22327 84.2693
-22.7955 7.88783 84.2693
-23.0003 8.17976 84.6279
-23.41 8.7636 85.345
-23.4932 8.72009 85.7036
-23.5764 8.67658 86.0622
-23.6128 8.85063 84.6279
-23.3268 8.80712 84.9865
-24.1037 9.18607 84.6279
-23.8176 9.14255 84.9865
-23.5316 9.09904 85.345
-23.8989 8.89414 84.2693
-24.0205 9.22958 84.2693
-23.5296 8.89414 84.2693
-23.7344 9.18607 84.6279
-23.2436 8.85063 84.6279
-23.4484 9.14255 84.9865
-24.4729 9.18607 84.6279
-24.2253 9.5215 84.6279
-24.3085 9.47799 84.9865
-24.3917 9.43448 85.345
-23.9393 9.47799 84.9865
-24.0225 9.43448 85.345
-23.6532 9.43448 85.345
-23.4999 6.50258 84.6279
-23.1307 6.50258 84.6279
-23.2139 6.45906 84.9865
-22.7999 6.88153 84.2693
-22.8831 6.83801 84.6279
-22.9663 6.7945 84.9865
-23.5831 6.45906 84.9865
-23.2971 6.41555 85.345
-23.0495 6.75098 85.345
-23.2076 7.26048 83.9107
-23.3292 7.59591 83.9107
-22.8383 7.26048 83.9107
-23.4508 7.93135 83.9107
-22.9599 7.59591 83.9107
-22.4691 7.26048 83.9107
-22.5522 7.21696 84.2693
-22.6354 7.17345 84.6279
-22.7186 7.12993 84.9865
-22.8018 7.08642 85.345
-23.6663 6.41555 85.345
-23.3803 6.37203 85.7036
-23.1327 6.70747 85.7036
-22.885 7.04291 85.7036
-23.0816 7.93135 83.9107
-22.5907 7.59591 83.9107
-23.2032 8.26678 83.9107
-22.7123 7.93135 83.9107
-22.9171 8.22327 84.2693
-22.2214 7.59591 83.9107
-22.3878 7.50888 84.6279
-22.4262 7.88783 84.2693
-22.5094 7.84432 84.6279
-22.471 7.46537 84.9865
-22.5926 7.80081 84.9865
-22.5542 7.42186 85.345
-22.6758 7.75729 85.345
-22.6311 8.17976 84.6279
-22.7143 8.13624 84.9865
-22.7975 8.09273 85.345
-22.6374 7.37834 85.7036
-22.759 7.71378 85.7036
-23.5724 8.26678 83.9107
-23.3248 8.60222 83.9107
-23.408 8.55871 84.2693
-22.8339 8.26678 83.9107
-23.0387 8.55871 84.2693
-22.3431 7.93135 83.9107
-22.5479 8.22327 84.2693
-23.6512 9.22958 84.2693
-23.1604 8.89414 84.2693
-23.3652 9.18607 84.6279
-22.8743 8.85063 84.6279
-23.0791 9.14255 84.9865
-24.1421 9.56502 84.2693
-23.8561 9.5215 84.6279
-23.57 9.47799 84.9865
-23.284 9.43448 85.345
-23.6941 8.60222 83.9107
-23.8157 8.93766 83.9107
-23.9373 9.27309 83.9107
-23.4464 8.93766 83.9107
-23.5681 9.27309 83.9107
-23.7729 9.56502 84.2693
-23.0772 8.93766 83.9107
-23.282 9.22958 84.2693
-23.4868 9.5215 84.6279
-22.7911 8.89414 84.2693
-22.9959 9.18607 84.6279
-23.2008 9.47799 84.9865
-24.3469 9.85694 84.6279
-24.4301 9.81343 84.9865
-23.9777 9.85694 84.6279
-24.0609 9.81343 84.9865
-24.5133 9.76991 85.345
-24.1441 9.76991 85.345
-23.6916 9.81343 84.9865
-23.7748 9.76991 85.345
-23.858 9.7264 85.7036
-23.4056 9.76991 85.345
-23.7476 6.16714 84.6279
-23.2951 6.21065 84.2693
-23.3783 6.16714 84.6279
-23.4615 6.12363 84.9865
-22.9259 6.21065 84.2693
-23.0091 6.16714 84.6279
-23.0923 6.12363 84.9865
-22.7614 6.50258 84.6279
-22.8446 6.45906 84.9865
-23.1755 6.08011 85.345
-22.9278 6.41555 85.345
-22.5138 6.83801 84.6279
-22.597 6.7945 84.9865
-22.6802 6.75098 85.345
-23.8308 6.12363 84.9865
-23.5447 6.08011 85.345
-23.2587 6.0366 85.7036
-23.011 6.37203 85.7036
-23.1244 7.30399 83.5521
-23.246 7.63943 83.5521
-22.7551 7.30399 83.5521
-23.6152 7.63943 83.5521
-23.3676 7.97486 83.5521
-22.8767 7.63943 83.5521
-22.3859 7.30399 83.5521
-23.7369 7.97486 83.5521
-23.4892 8.3103 83.5521
-22.9984 7.97486 83.5521
-22.5075 7.63943 83.5521
-22.0166 7.30399 83.5521
-22.2662 7.17345 84.6279
-22.3494 7.12993 84.9865
-22.4326 7.08642 85.345
-23.914 6.08011 85.345
-23.6279 6.0366 85.7036
-23.12 8.3103 83.5521
-22.6291 7.97486 83.5521
-22.1382 7.63943 83.5521
-23.2416 8.64573 83.5521
-22.7507 8.3103 83.5521
-22.9556 8.60222 83.9107
-22.2599 7.97486 83.5521
-22.4647 8.26678 83.9107
-22.6695 8.55871 84.2693
-21.769 7.63943 83.5521
-22.1018 7.46537 84.9865
-22.2234 7.80081 84.9865
-22.185 7.42186 85.345
-22.3066 7.75729 85.345
-23.6109 8.64573 83.5521
-23.3632 8.98117 83.5521
-22.8724 8.64573 83.5521
-22.3815 8.3103 83.5521
-22.5863 8.60222 83.9107
-21.8906 7.97486 83.5521
-23.6897 9.60853 83.9107
-23.1988 9.27309 83.9107
-23.4036 9.56502 84.2693
-22.7079 8.93766 83.9107
-22.9127 9.22958 84.2693
-23.1176 9.5215 84.6279
-22.4219 8.89414 84.2693
-22.6267 9.18607 84.6279
-23.8945 9.90045 84.2693
-23.6084 9.85694 84.6279
-23.3224 9.81343 84.9865
-23.7325 8.98117 83.5521
-23.8541 9.31661 83.5521
-23.4849 9.31661 83.5521
-22.994 8.98117 83.5521
-23.6065 9.65204 83.5521
-23.1156 9.31661 83.5521
-23.3204 9.60853 83.9107
-23.5252 9.90045 84.2693
-22.6247 8.98117 83.5521
-22.8296 9.27309 83.9107
-23.0344 9.56502 84.2693
-23.2392 9.85694 84.6279
-22.3387 8.93766 83.9107
-22.5435 9.22958 84.2693
-22.7483 9.5215 84.6279
-24.1825 10.1489 84.9865
-24.2657 10.1053 85.345
-23.7301 10.1924 84.6279
-23.8133 10.1489 84.9865
-23.8965 10.1053 85.345
-23.9797 10.0618 85.7036
-23.444 10.1489 84.9865
-23.5272 10.1053 85.345
-23.6104 10.0618 85.7036
-23.158 10.1053 85.345
-23.2412 10.0618 85.7036
-23.6259 5.8317 84.6279
-23.7091 5.78819 84.9865
-23.1735 5.87522 84.2693
-23.2567 5.8317 84.6279
-23.3399 5.78819 84.9865
-23.4231 5.74468 85.345
-22.8042 5.87522 84.2693
-22.8874 5.8317 84.6279
-22.6398 6.16714 84.6279
-22.9706 5.78819 84.9865
-22.723 6.12363 84.9865
-23.0538 5.74468 85.345
-22.8062 6.08011 85.345
-22.4754 6.45906 84.9865
-22.5586 6.41555 85.345
-23.137 5.70116 85.7036
-22.8894 6.0366 85.7036
-24.0784 5.78819 84.9865
-23.7923 5.74468 85.345
-23.5063 5.70116 85.7036
-23.0412 7.3475 83.1935
-23.1628 7.68294 83.1935
-22.6719 7.3475 83.1935
-23.532 7.68294 83.1935
-23.2844 8.01838 83.1935
-22.7935 7.68294 83.1935
-22.3027 7.3475 83.1935
-23.6537 8.01838 83.1935
-23.406 8.35381 83.1935
-22.9152 8.01838 83.1935
-22.4243 7.68294 83.1935
-22.181 7.01207 83.1935
-21.9334 7.3475 83.1935
-23.5277 8.68925 83.1935
-23.0368 8.35381 83.1935
-22.5459 8.01838 83.1935
-22.055 7.68294 83.1935
-21.8118 7.01207 83.1935
-21.5642 7.3475 83.1935
-21.6474 7.30399 83.5521
-23.1584 8.68925 83.1935
-22.6675 8.35381 83.1935
-22.1767 8.01838 83.1935
-21.6858 7.68294 83.1935
-23.28 9.02469 83.1935
-22.7892 8.68925 83.1935
-22.2983 8.35381 83.1935
-22.5031 8.64573 83.5521
-21.8074 8.01838 83.1935
-22.0122 8.3103 83.5521
-21.3165 7.68294 83.1935
-21.3997 7.63943 83.5521
-21.5214 7.97486 83.5521
-23.6493 9.02469 83.1935
-23.4017 9.36012 83.1935
-22.9108 9.02469 83.1935
-22.4199 8.68925 83.1935
-21.929 8.35381 83.1935
-21.4382 8.01838 83.1935
-23.2372 9.65204 83.5521
-23.4421 9.94397 83.9107
-22.7464 9.31661 83.5521
-22.9512 9.60853 83.9107
-23.156 9.90045 84.2693
-22.2555 8.98117 83.5521
-22.4603 9.27309 83.9107
-22.6651 9.56502 84.2693
-22.8699 9.85694 84.6279
-22.1742 9.22958 84.2693
-23.3608 10.1924 84.6279
-23.0324 9.36012 83.1935
-22.5415 9.02469 83.1935
-23.154 9.69556 83.1935
-22.6632 9.36012 83.1935
-22.868 9.65204 83.5521
-23.0728 9.94397 83.9107
-22.3771 9.31661 83.5521
-22.5819 9.60853 83.9107
-22.7867 9.90045 84.2693
-22.0911 9.27309 83.9107
-22.2959 9.56502 84.2693
-24.0181 10.4408 85.345
-23.5656 10.4843 84.9865
-23.6488 10.4408 85.345
-23.732 10.3973 85.7036
-23.8152 10.3538 86.0622
-23.1964 10.4843 84.9865
-23.2796 10.4408 85.345
-23.3628 10.3973 85.7036
-23.446 10.3538 86.0622
-22.9103 10.4408 85.345
-22.9935 10.3973 85.7036
-23.0767 10.3538 86.0622
-23.5043 5.49627 84.6279
-23.5875 5.45275 84.9865
-23.6707 5.40924 85.345
-23.0519 5.53978 84.2693
-23.1351 5.49627 84.6279
-23.2183 5.45275 84.9865
-23.3015 5.40924 85.345
-23.3847 5.36572 85.7036
-22.7658 5.49627 84.6279
-22.5182 5.8317 84.6279
-22.849 5.45275 84.9865
-22.6014 5.78819 84.9865
-22.3538 6.12363 84.9865
-22.9322 5.40924 85.345
-22.6846 5.74468 85.345
-22.437 6.08011 85.345
-23.0154 5.36572 85.7036
-22.7678 5.70116 85.7036
-22.958 7.39102 82.8349
-23.0796 7.72645 82.8349
-22.5887 7.39102 82.8349
-23.4488 7.72645 82.8349
-23.2012 8.06189 82.8349
-22.7103 7.72645 82.8349
-22.2195 7.39102 82.8349
-23.3228 8.39733 82.8349
-22.832 8.06189 82.8349
-22.3411 7.72645 82.8349
-22.0978 7.05558 82.8349
-21.8502 7.39102 82.8349
-22.9536 8.39733 82.8349
-22.4627 8.06189 82.8349
-21.9718 7.72645 82.8349
-21.7286 7.05558 82.8349
-21.481 7.39102 82.8349
-22.5843 8.39733 82.8349
-22.0935 8.06189 82.8349
-21.6026 7.72645 82.8349
-21.3593 7.05558 82.8349
-21.4425 7.01207 83.1935
-21.1117 7.39102 82.8349
-21.1949 7.3475 83.1935
-21.2781 7.30399 83.5521
-22.2151 8.39733 82.8349
-21.7242 8.06189 82.8349
-21.2333 7.72645 82.8349
-21.8458 8.39733 82.8349
-21.355 8.06189 82.8349
-21.5598 8.35381 83.1935
-20.8641 7.72645 82.8349
-20.9473 7.68294 83.1935
-21.0305 7.63943 83.5521
-21.0689 8.01838 83.1935
-21.1521 7.97486 83.5521
-21.4766 8.39733 82.8349
-20.9857 8.06189 82.8349
-22.7848 9.69556 83.1935
-22.9896 9.98748 83.5521
-22.4987 9.65204 83.5521
-22.7036 9.94397 83.9107
-22.2127 9.60853 83.9107
-22.4175 9.90045 84.2693
-22.6204 9.98748 83.5521
-23.7705 10.7762 85.345
-23.8537 10.7327 85.7036
-23.6873 10.8197 84.9865
-23.318 10.8197 84.9865
-23.4012 10.7762 85.345
-23.4844 10.7327 85.7036
-23.9369 10.6892 86.0622
-23.5676 10.6892 86.0622
-24.2677 10.3102 86.4208
-23.8984 10.3102 86.4208
-24.02 10.6457 86.4208
-23.5292 10.3102 86.4208
-23.6508 10.6457 86.4208
-22.9488 10.8197 84.9865
-23.032 10.7762 85.345
-23.1152 10.7327 85.7036
-23.1984 10.6892 86.0622
-23.2815 10.6457 86.4208
-22.6627 10.7762 85.345
-22.7459 10.7327 85.7036
-22.8291 10.6892 86.0622
-23.3827 5.16083 84.6279
-23.0134 5.16083 84.6279
-23.0966 5.11732 84.9865
-22.4798 5.45275 84.9865
-22.563 5.40924 85.345
-22.5055 7.43453 82.4763
-22.6271 7.76997 82.4763
-22.1363 7.43453 82.4763
-22.2579 7.76997 82.4763
-22.0146 7.09909 82.4763
-21.767 7.43453 82.4763
-22.3795 8.1054 82.4763
-21.8886 7.76997 82.4763
-21.6454 7.09909 82.4763
-21.3978 7.43453 82.4763
-22.0103 8.1054 82.4763
-21.5194 7.76997 82.4763
-21.2761 7.09909 82.4763
-21.0285 7.43453 82.4763
-21.641 8.1054 82.4763
-21.1501 7.76997 82.4763
-20.9069 7.09909 82.4763
-20.9901 7.05558 82.8349
-21.0733 7.01207 83.1935
-20.6593 7.43453 82.4763
-20.7425 7.39102 82.8349
-20.8257 7.3475 83.1935
-20.9089 7.30399 83.5521
-21.2718 8.1054 82.4763
-20.7809 7.76997 82.4763
-20.4116 7.76997 82.4763
-20.4948 7.72645 82.8349
-20.578 7.68294 83.1935
-20.6165 8.06189 82.8349
-20.6997 8.01838 83.1935
-20.6612 7.63943 83.5521
-20.7829 7.97486 83.5521
-20.7444 7.59591 83.9107
-23.8921 11.1117 85.345
-23.9753 11.0681 85.7036
-23.5228 11.1117 85.345
-23.606 11.0681 85.7036
-24.3061 10.6892 86.0622
-24.0585 11.0246 86.0622
-23.6892 11.0246 86.0622
-23.4396 11.1552 84.9865
-23.0704 11.1552 84.9865
-23.1536 11.1117 85.345
-23.2368 11.0681 85.7036
-23.32 11.0246 86.0622
-24.3893 10.6457 86.4208
-24.1417 10.9811 86.4208
-23.7724 10.9811 86.4208
-23.4032 10.9811 86.4208
-24.3509 10.2667 86.7794
-24.4725 10.6022 86.7794
-23.9816 10.2667 86.7794
-24.1032 10.6022 86.7794
-23.734 10.6022 86.7794
-24.2249 10.9376 86.7794
-23.8556 10.9376 86.7794
-23.4864 10.9376 86.7794
-22.7843 11.1117 85.345
-22.8675 11.0681 85.7036
-22.9507 11.0246 86.0622
-23.0339 10.9811 86.4208
-22.3007 7.14261 82.1177
-22.4223 7.47804 82.1177
-22.0531 7.47804 82.1177
-22.1747 7.81348 82.1177
-21.9314 7.14261 82.1177
-21.6838 7.47804 82.1177
-21.8054 7.81348 82.1177
-21.8098 6.80717 82.1177
-21.5622 7.14261 82.1177
-21.3146 7.47804 82.1177
-21.4362 7.81348 82.1177
-21.4406 6.80717 82.1177
-21.1929 7.14261 82.1177
-20.9453 7.47804 82.1177
-21.0669 7.81348 82.1177
-21.0713 6.80717 82.1177
-20.8237 7.14261 82.1177
-20.5761 7.47804 82.1177
-20.7021 6.80717 82.1177
-20.4544 7.14261 82.1177
-20.5376 7.09909 82.4763
-20.6208 7.05558 82.8349
-20.704 7.01207 83.1935
-20.2068 7.47804 82.1177
-20.29 7.43453 82.4763
-20.3732 7.39102 82.8349
-20.4564 7.3475 83.1935
-20.5396 7.30399 83.5521
-20.6228 7.26048 83.9107
-20.3284 7.81348 82.1177
-19.9592 7.81348 82.1177
-20.0424 7.76997 82.4763
-20.1256 7.72645 82.8349
-20.2472 8.06189 82.8349
-20.2088 7.68294 83.1935
-20.3304 8.01838 83.1935
-20.292 7.63943 83.5521
-20.4136 7.97486 83.5521
-20.3752 7.59591 83.9107
-20.4968 7.93135 83.9107
-23.7277 11.4036 85.7036
-24.4277 11.0246 86.0622
-24.1801 11.3601 86.0622
-23.8109 11.3601 86.0622
-23.2752 11.4471 85.345
-23.3584 11.4036 85.7036
-23.4416 11.3601 86.0622
-24.6754 10.6892 86.0622
-24.7585 10.6457 86.4208
-24.5109 10.9811 86.4208
-24.2633 11.3166 86.4208
-23.894 11.3166 86.4208
-23.5248 11.3166 86.4208
-22.9892 11.4036 85.7036
-23.0724 11.3601 86.0622
-23.1555 11.3166 86.4208
-24.8417 10.6022 86.7794
-24.5941 10.9376 86.7794
-24.3465 11.273 86.7794
-23.9772 11.273 86.7794
-23.608 11.273 86.7794
-24.4341 10.2232 87.138
-24.5557 10.5587 87.138
-24.1864 10.5587 87.138
-24.9249 10.5587 87.138
-24.6773 10.8941 87.138
-24.3081 10.8941 87.138
-23.8172 10.5587 87.138
-23.9388 10.8941 87.138
-23.5696 10.8941 87.138
-24.4297 11.2295 87.138
-24.0604 11.2295 87.138
-23.6912 11.2295 87.138
-23.3219 11.2295 87.138
-22.5868 7.18612 81.7591
-22.0959 6.85069 81.7591
-22.2175 7.18612 81.7591
-22.3391 7.52156 81.7591
-21.8483 7.18612 81.7591
-22.7084 7.52156 81.7591
-21.9699 7.52156 81.7591
-22.0915 7.85699 81.7591
-21.6006 7.52156 81.7591
-21.7223 7.85699 81.7591
-21.7266 6.85069 81.7591
-21.479 7.18612 81.7591
-21.2314 7.52156 81.7591
-21.353 7.85699 81.7591
-21.3574 6.85069 81.7591
-21.1098 7.18612 81.7591
-20.8621 7.52156 81.7591
-20.9838 7.85699 81.7591
-20.9881 6.85069 81.7591
-20.7405 7.18612 81.7591
-20.4929 7.52156 81.7591
-20.6189 6.85069 81.7591
-20.3713 7.18612 81.7591
-20.1236 7.52156 81.7591
-20.2496 6.85069 81.7591
-20.3328 6.80717 82.1177
-20.002 7.18612 81.7591
-20.0852 7.14261 82.1177
-20.1684 7.09909 82.4763
-20.2516 7.05558 82.8349
-20.3348 7.01207 83.1935
-20.418 6.96855 83.5521
-19.7544 7.52156 81.7591
-19.8376 7.47804 82.1177
-19.9208 7.43453 82.4763
-20.004 7.39102 82.8349
-20.0872 7.3475 83.1935
-20.1704 7.30399 83.5521
-20.2536 7.26048 83.9107
-19.876 7.85699 81.7591
-19.5068 7.85699 81.7591
-19.5899 7.81348 82.1177
-19.6731 7.76997 82.4763
-19.7563 7.72645 82.8349
-19.878 8.06189 82.8349
-19.8395 7.68294 83.1935
-19.9612 8.01838 83.1935
-19.9227 7.63943 83.5521
-20.0444 7.97486 83.5521
-20.166 8.3103 83.5521
-20.0059 7.59591 83.9107
-20.1276 7.93135 83.9107
-20.2492 8.26678 83.9107
-20.0891 7.5524 84.2693
-20.2107 7.88783 84.2693
-23.9325 11.6955 86.0622
-24.797 11.0246 86.0622
-24.8802 10.9811 86.4208
-24.5494 11.3601 86.0622
-24.6325 11.3166 86.4208
-24.3849 11.652 86.4208
-24.0157 11.652 86.4208
-23.6464 11.652 86.4208
-24.9634 10.9376 86.7794
-24.7157 11.273 86.7794
-24.4681 11.6085 86.7794
-24.0989 11.6085 86.7794
-23.7296 11.6085 86.7794
-25.0466 10.8941 87.138
-24.7989 11.2295 87.138
-24.5513 11.565 87.138
-24.1821 11.565 87.138
-23.8128 11.565 87.138
-23.4436 11.565 87.138
-24.6389 10.5151 87.4966
-24.2696 10.5151 87.4966
-24.7605 10.8506 87.4966
-24.3913 10.8506 87.4966
-23.9004 10.5151 87.4966
-24.022 10.8506 87.4966
-24.5129 11.186 87.4966
-24.1436 11.186 87.4966
-23.6528 10.8506 87.4966
-23.7744 11.186 87.4966
-23.2835 10.8506 87.4966
-23.4051 11.186 87.4966
-24.6345 11.5214 87.4966
-24.2653 11.5214 87.4966
-23.896 11.5214 87.4966
-23.5268 11.5214 87.4966
-23.0359 11.186 87.4966
-23.1575 11.5214 87.4966
-22.7512 6.8942 81.4005
-22.8728 7.22964 81.4005
-22.3819 6.8942 81.4005
-22.5036 7.22964 81.4005
-22.6252 7.56507 81.4005
-22.1343 7.22964 81.4005
-22.2603 6.55876 81.4005
-21.8911 6.55876 81.4005
-22.0127 6.8942 81.4005
-21.6434 6.8942 81.4005
-22.2559 7.56507 81.4005
-21.7651 7.22964 81.4005
-22.3776 7.90051 81.4005
-21.8867 7.56507 81.4005
-21.3958 7.22964 81.4005
-22.9944 7.56507 81.4005
-22.7468 7.90051 81.4005
-22.0083 7.90051 81.4005
-21.5174 7.56507 81.4005
-21.6391 7.90051 81.4005
-21.1482 7.56507 81.4005
-21.2698 7.90051 81.4005
-21.5218 6.55876 81.4005
-21.2742 6.8942 81.4005
-21.0266 7.22964 81.4005
-20.7789 7.56507 81.4005
-20.9006 7.90051 81.4005
-21.1526 6.55876 81.4005
-20.9049 6.8942 81.4005
-20.6573 7.22964 81.4005
-20.4097 7.56507 81.4005
-20.7833 6.55876 81.4005
-20.5357 6.8942 81.4005
-20.2881 7.22964 81.4005
-20.0404 7.56507 81.4005
-20.4141 6.55876 81.4005
-20.1664 6.8942 81.4005
-19.9188 7.22964 81.4005
-19.6712 7.56507 81.4005
-20.0448 6.55876 81.4005
-20.128 6.51525 81.7591
-19.7972 6.8942 81.4005
-19.8804 6.85069 81.7591
-19.9636 6.80717 82.1177
-20.0468 6.76366 82.4763
-19.5496 7.22964 81.4005
-19.6328 7.18612 81.7591
-19.7159 7.14261 82.1177
-19.7991 7.09909 82.4763
-20.13 6.72014 82.8349
-19.8823 7.05558 82.8349
-19.9655 7.01207 83.1935
-20.0487 6.96855 83.5521
-19.3851 7.52156 81.7591
-19.4683 7.47804 82.1177
-19.5515 7.43453 82.4763
-19.6347 7.39102 82.8349
-19.7179 7.3475 83.1935
-19.8011 7.30399 83.5521
-19.8843 7.26048 83.9107
-19.2207 7.81348 82.1177
-19.3039 7.76997 82.4763
-19.4255 8.1054 82.4763
-19.3871 7.72645 82.8349
-19.5087 8.06189 82.8349
-19.4703 7.68294 83.1935
-19.5919 8.01838 83.1935
-19.5535 7.63943 83.5521
-19.6751 7.97486 83.5521
-19.7583 7.93135 83.9107
-24.7542 11.652 86.4208
-24.8374 11.6085 86.7794
-24.2205 11.9439 86.7794
-24.0176 11.8569 87.4966
-23.6484 11.8569 87.4966
-23.2791 11.8569 87.4966
-24.4745 10.8071 87.8552
-24.1052 10.8071 87.8552
-24.5961 11.1425 87.8552
-24.2268 11.1425 87.8552
-23.736 10.8071 87.8552
-23.8576 11.1425 87.8552
-24.7177 11.4779 87.8552
-24.3485 11.4779 87.8552
-23.9792 11.4779 87.8552
-23.3667 10.8071 87.8552
-23.4883 11.1425 87.8552
-23.61 11.4779 87.8552
-22.9143 10.8506 87.4966
-22.9975 10.8071 87.8552
-23.1191 11.1425 87.8552
-23.2407 11.4779 87.8552
-24.4701 11.8134 87.8552
-24.1008 11.8134 87.8552
-23.7316 11.8134 87.8552
-23.3623 11.8134 87.8552
-22.6666 11.186 87.4966
-22.7498 11.1425 87.8552
-22.8715 11.4779 87.8552
-22.9931 11.8134 87.8552
-22.9156 6.60228 81.0419
-23.0372 6.93771 81.0419
-22.5464 6.60228 81.0419
-22.668 6.93771 81.0419
-22.7896 7.27315 81.0419
-22.2987 6.93771 81.0419
-23.1589 7.27315 81.0419
-22.9112 7.60859 81.0419
-22.4204 7.27315 81.0419
-22.1771 6.60228 81.0419
-21.9295 6.93771 81.0419
-22.542 7.60859 81.0419
-22.0511 7.27315 81.0419
-22.6636 7.94402 81.0419
-22.1727 7.60859 81.0419
-21.6819 7.27315 81.0419
-21.8079 6.60228 81.0419
-21.4386 6.60228 81.0419
-21.5602 6.93771 81.0419
-21.191 6.93771 81.0419
-22.2944 7.94402 81.0419
-21.8035 7.60859 81.0419
-21.3126 7.27315 81.0419
-21.9251 7.94402 81.0419
-21.4342 7.60859 81.0419
-20.9434 7.27315 81.0419
-23.2805 7.60859 81.0419
-23.0329 7.94402 81.0419
-21.5559 7.94402 81.0419
-21.065 7.60859 81.0419
-20.6957 7.60859 81.0419
-21.0694 6.60228 81.0419
-20.8217 6.93771 81.0419
-20.5741 7.27315 81.0419
-20.3265 7.60859 81.0419
-20.7001 6.60228 81.0419
-20.4525 6.93771 81.0419
-20.2049 7.27315 81.0419
-19.9572 7.60859 81.0419
-20.3309 6.60228 81.0419
-20.0832 6.93771 81.0419
-19.8356 7.27315 81.0419
-19.9616 6.60228 81.0419
-19.714 6.93771 81.0419
-19.4664 7.27315 81.0419
-19.5924 6.60228 81.0419
-19.6756 6.55876 81.4005
-19.7588 6.51525 81.7591
-19.3447 6.93771 81.0419
-19.4279 6.8942 81.4005
-19.5111 6.85069 81.7591
-19.5943 6.80717 82.1177
-19.6775 6.76366 82.4763
-19.7607 6.72014 82.8349
-19.1803 7.22964 81.4005
-19.2635 7.18612 81.7591
-19.3467 7.14261 82.1177
-19.4299 7.09909 82.4763
-19.5131 7.05558 82.8349
-19.5963 7.01207 83.1935
-19.0159 7.52156 81.7591
-19.0991 7.47804 82.1177
-19.1823 7.43453 82.4763
-19.2655 7.39102 82.8349
-19.3487 7.3475 83.1935
-18.9346 7.76997 82.4763
-19.0178 7.72645 82.8349
-19.1395 8.06189 82.8349
-19.101 7.68294 83.1935
-19.2227 8.01838 83.1935
-24.2225 12.1488 87.8552
-23.77 12.1923 87.4966
-23.8532 12.1488 87.8552
-23.4008 12.1923 87.4966
-23.484 12.1488 87.8552
-23.1147 12.1488 87.8552
-24.9269 10.7635 88.2138
-24.5576 10.7635 88.2138
-24.6793 11.099 88.2138
-24.1884 10.7635 88.2138
-24.31 11.099 88.2138
-23.8191 10.7635 88.2138
-23.9408 11.099 88.2138
-25.0485 11.099 88.2138
-24.8009 11.4344 88.2138
-24.4316 11.4344 88.2138
-24.0624 11.4344 88.2138
-23.4499 10.7635 88.2138
-23.5715 11.099 88.2138
-23.6931 11.4344 88.2138
-24.5533 11.7699 88.2138
-24.184 11.7699 88.2138
-23.8148 11.7699 88.2138
-23.0806 10.7635 88.2138
-23.2023 11.099 88.2138
-23.3239 11.4344 88.2138
-23.4455 11.7699 88.2138
-22.8758 10.4716 87.8552
-22.545 10.8506 87.4966
-22.6282 10.8071 87.8552
-22.959 10.4281 88.2138
-22.7114 10.7635 88.2138
-22.833 11.099 88.2138
-22.9546 11.4344 88.2138
-23.0763 11.7699 88.2138
-24.3056 12.1053 88.2138
-23.9364 12.1053 88.2138
-23.5671 12.1053 88.2138
-23.1979 12.1053 88.2138
-22.3806 11.1425 87.8552
-22.5022 11.4779 87.8552
-22.4638 11.099 88.2138
-22.5854 11.4344 88.2138
-22.707 11.7699 88.2138
-22.8324 6.64579 80.6833
-22.954 6.98123 80.6833
-22.4632 6.64579 80.6833
-23.3233 6.98123 80.6833
-23.0757 7.31666 80.6833
-22.5848 6.98123 80.6833
-22.0939 6.64579 80.6833
-22.7064 7.31666 80.6833
-22.2155 6.98123 80.6833
-22.828 7.6521 80.6833
-22.3372 7.31666 80.6833
-21.8463 6.98123 80.6833
-23.4449 7.31666 80.6833
-23.1973 7.6521 80.6833
-22.9497 7.98754 80.6833
-22.4588 7.6521 80.6833
-21.9679 7.31666 80.6833
-21.7247 6.64579 80.6833
-21.477 6.98123 80.6833
-22.5804 7.98754 80.6833
-22.0895 7.6521 80.6833
-21.5987 7.31666 80.6833
-22.2112 7.98754 80.6833
-21.7203 7.6521 80.6833
-21.2294 7.31666 80.6833
-21.3554 6.64579 80.6833
-21.1078 6.98123 80.6833
-20.7385 6.98123 80.6833
-21.351 7.6521 80.6833
-20.8602 7.31666 80.6833
-20.4909 7.31666 80.6833
-23.3189 7.98754 80.6833
-20.2433 7.6521 80.6833
-20.6169 6.64579 80.6833
-20.3693 6.98123 80.6833
-20.1217 7.31666 80.6833
-20.2477 6.64579 80.6833
-20 6.98123 80.6833
-19.7524 7.31666 80.6833
-20.126 6.31035 80.6833
-19.8784 6.64579 80.6833
-19.6308 6.98123 80.6833
-19.3832 7.31666 80.6833
-19.7568 6.31035 80.6833
-19.5092 6.64579 80.6833
-19.2615 6.98123 80.6833
-19.1399 6.64579 80.6833
-19.1419 6.85069 81.7591
-19.2251 6.80717 82.1177
-19.3083 6.76366 82.4763
-18.9774 7.14261 82.1177
-19.0606 7.09909 82.4763
-19.1438 7.05558 82.8349
-18.7298 7.47804 82.1177
-18.813 7.43453 82.4763
-18.8962 7.39102 82.8349
-18.9794 7.3475 83.1935
-18.6486 7.72645 82.8349
-24.3441 12.4842 87.8552
-24.4273 12.4407 88.2138
-23.9748 12.4842 87.8552
-24.058 12.4407 88.2138
-23.8916 12.5278 87.4966
-23.5224 12.5278 87.4966
-23.6056 12.4842 87.8552
-23.6888 12.4407 88.2138
-23.1531 12.5278 87.4966
-23.2363 12.4842 87.8552
-23.3195 12.4407 88.2138
-25.3793 10.72 88.5724
-24.8885 10.3846 88.5724
-25.0101 10.72 88.5724
-25.1317 11.0555 88.5724
-24.6408 10.72 88.5724
-24.7625 11.0555 88.5724
-24.5192 10.3846 88.5724
-24.2716 10.72 88.5724
-24.3932 11.0555 88.5724
-24.8841 11.3909 88.5724
-24.5148 11.3909 88.5724
-23.9023 10.72 88.5724
-24.024 11.0555 88.5724
-24.1456 11.3909 88.5724
-23.5331 10.72 88.5724
-23.6547 11.0555 88.5724
-23.7763 11.3909 88.5724
-25.501 11.0555 88.5724
-25.2533 11.3909 88.5724
-25.0057 11.7263 88.5724
-24.6365 11.7263 88.5724
-24.2672 11.7263 88.5724
-23.898 11.7263 88.5724
-23.1638 10.72 88.5724
-23.2855 11.0555 88.5724
-23.4071 11.3909 88.5724
-23.5287 11.7263 88.5724
-24.3888 12.0618 88.5724
-24.0196 12.0618 88.5724
-23.6503 12.0618 88.5724
-23.0422 10.3846 88.5724
-22.7946 10.72 88.5724
-22.9162 11.0555 88.5724
-23.0378 11.3909 88.5724
-23.1595 11.7263 88.5724
-23.2811 12.0618 88.5724
-22.5066 10.4716 87.8552
-22.5898 10.4281 88.2138
-22.259 10.8071 87.8552
-22.3421 10.7635 88.2138
-22.673 10.3846 88.5724
-22.4253 10.72 88.5724
-22.547 11.0555 88.5724
-22.6686 11.3909 88.5724
-22.7902 11.7263 88.5724
-24.1412 12.3972 88.5724
-23.772 12.3972 88.5724
-23.4027 12.3972 88.5724
-22.0113 11.1425 87.8552
-22.0945 11.099 88.2138
-22.133 11.4779 87.8552
-22.2161 11.4344 88.2138
-22.3378 11.7699 88.2138
-22.1777 11.0555 88.5724
-22.2993 11.3909 88.5724
-22.421 11.7263 88.5724
-22.7492 6.6893 80.3248
-22.8708 7.02474 80.3248
-22.38 6.6893 80.3248
-23.2401 7.02474 80.3248
-22.9925 7.36018 80.3248
-22.5016 7.02474 80.3248
-22.0107 6.6893 80.3248
-23.3617 7.36018 80.3248
-23.1141 7.69561 80.3248
-22.6232 7.36018 80.3248
-22.1323 7.02474 80.3248
-21.6415 6.6893 80.3248
-22.7448 7.69561 80.3248
-22.254 7.36018 80.3248
-21.7631 7.02474 80.3248
-22.8665 8.03105 80.3248
-22.3756 7.69561 80.3248
-21.8847 7.36018 80.3248
-21.3938 7.02474 80.3248
-22.0063 7.69561 80.3248
-21.5155 7.36018 80.3248
-21.2722 6.6893 80.3248
-21.0246 7.02474 80.3248
-20.903 6.6893 80.3248
-20.6553 7.02474 80.3248
-20.5337 6.6893 80.3248
-20.2861 7.02474 80.3248
-20.4077 7.36018 80.3248
-20.0385 7.36018 80.3248
-20.4121 6.35387 80.3248
-20.1645 6.6893 80.3248
-19.9168 7.02474 80.3248
-19.6692 7.36018 80.3248
-20.0428 6.35387 80.3248
-19.7952 6.6893 80.3248
-19.5476 7.02474 80.3248
-19.6736 6.35387 80.3248
-19.426 6.6893 80.3248
-19.1783 7.02474 80.3248
-19.3043 6.35387 80.3248
-19.0567 6.6893 80.3248
-18.8091 7.02474 80.3248
-18.9351 6.35387 80.3248
-18.6875 6.6893 80.3248
-24.3825 12.8632 87.4966
-24.4657 12.8197 87.8552
-24.5489 12.7762 88.2138
-24.0965 12.8197 87.8552
-24.1796 12.7762 88.2138
-24.2628 12.7327 88.5724
-24.0133 12.8632 87.4966
-23.7272 12.8197 87.8552
-23.8104 12.7762 88.2138
-23.8936 12.7327 88.5724
-23.9301 12.9067 87.138
-23.644 12.8632 87.4966
-23.5608 12.9067 87.138
-23.2748 12.8632 87.4966
-23.358 12.8197 87.8552
-23.4411 12.7762 88.2138
-23.5243 12.7327 88.5724
-22.9887 12.8197 87.8552
-23.0719 12.7762 88.2138
-23.1551 12.7327 88.5724
-25.5842 11.012 88.931
-25.0933 10.6765 88.931
-25.2149 11.012 88.931
-24.9717 10.3411 88.931
-24.6024 10.3411 88.931
-24.724 10.6765 88.931
-24.8457 11.012 88.931
-25.3365 11.3474 88.931
-24.9673 11.3474 88.931
-24.3548 10.6765 88.931
-24.4764 11.012 88.931
-24.598 11.3474 88.931
-24.1072 11.012 88.931
-24.2288 11.3474 88.931
-25.0889 11.6828 88.931
-24.7197 11.6828 88.931
-24.3504 11.6828 88.931
-23.7379 11.012 88.931
-23.8595 11.3474 88.931
-23.9812 11.6828 88.931
-23.247 10.6765 88.931
-23.3687 11.012 88.931
-23.4903 11.3474 88.931
-23.6119 11.6828 88.931
-25.7058 11.3474 88.931
-25.4582 11.6828 88.931
-25.2105 12.0183 88.931
-24.8413 12.0183 88.931
-24.472 12.0183 88.931
-24.1028 12.0183 88.931
-23.7335 12.0183 88.931
-23.1254 10.3411 88.931
-22.8778 10.6765 88.931
-22.9994 11.012 88.931
-23.121 11.3474 88.931
-23.2427 11.6828 88.931
-22.7562 10.3411 88.931
-22.5085 10.6765 88.931
-22.6302 11.012 88.931
-22.7518 11.3474 88.931
-22.4681 10.0927 88.2138
-22.1373 10.4716 87.8552
-22.2205 10.4281 88.2138
-22.5513 10.0492 88.5724
-22.3037 10.3846 88.5724
-21.8897 10.8071 87.8552
-21.9729 10.7635 88.2138
-22.0561 10.72 88.5724
-22.3869 10.3411 88.931
-22.1393 10.6765 88.931
-22.2609 11.012 88.931
-22.3825 11.3474 88.931
-22.5042 11.6828 88.931
-21.7253 11.099 88.2138
-21.8469 11.4344 88.2138
-21.8085 11.0555 88.5724
-21.9301 11.3909 88.5724
-21.8917 11.012 88.931
-22.0133 11.3474 88.931
-22.666 6.73282 79.9662
-22.7876 7.06825 79.9662
-22.2968 6.73282 79.9662
-23.1569 7.06825 79.9662
-22.9093 7.40369 79.9662
-22.4184 7.06825 79.9662
-22.1751 6.39738 79.9662
-21.9275 6.73282 79.9662
-23.2785 7.40369 79.9662
-23.0309 7.73913 79.9662
-22.54 7.40369 79.9662
-22.0491 7.06825 79.9662
-21.8059 6.39738 79.9662
-21.5583 6.73282 79.9662
-22.6616 7.73913 79.9662
-22.1708 7.40369 79.9662
-21.6799 7.06825 79.9662
-21.4366 6.39738 79.9662
-21.189 6.73282 79.9662
-22.2924 7.73913 79.9662
-21.8015 7.40369 79.9662
-21.3106 7.06825 79.9662
-21.4323 7.40369 79.9662
-20.9414 7.06825 79.9662
-21.0674 6.39738 79.9662
-20.8198 6.73282 79.9662
-20.5721 7.06825 79.9662
-20.6981 6.39738 79.9662
-20.4505 6.73282 79.9662
-20.6938 7.40369 79.9662
-20.2029 7.06825 79.9662
-20.3289 6.39738 79.9662
-20.0813 6.73282 79.9662
-20.3245 7.40369 79.9662
-19.8336 7.06825 79.9662
-19.9553 7.40369 79.9662
-19.586 7.40369 79.9662
-20.5765 6.06194 79.9662
-20.2073 6.06194 79.9662
-19.9596 6.39738 79.9662
-19.712 6.73282 79.9662
-19.4644 7.06825 79.9662
-19.838 6.06194 79.9662
-19.5904 6.39738 79.9662
-19.3428 6.73282 79.9662
-19.0951 7.06825 79.9662
-19.4688 6.06194 79.9662
-19.2211 6.39738 79.9662
-18.9735 6.73282 79.9662
-18.7259 7.06825 79.9662
-19.0995 6.06194 79.9662
-18.8519 6.39738 79.9662
-18.6043 6.73282 79.9662
-18.3566 7.06825 79.9662
-18.4398 7.02474 80.3248
-18.7303 6.06194 79.9662
-18.4826 6.39738 79.9662
-18.5658 6.35387 80.3248
-18.235 6.73282 79.9662
-18.3182 6.6893 80.3248
-24.1349 13.1986 87.4966
-24.2181 13.1551 87.8552
-24.3013 13.1116 88.2138
-24.3845 13.0681 88.5724
-23.8488 13.1551 87.8552
-23.932 13.1116 88.2138
-24.0152 13.0681 88.5724
-24.0984 13.0246 88.931
-23.7656 13.1986 87.4966
-23.4796 13.1551 87.8552
-23.5628 13.1116 88.2138
-23.646 13.0681 88.5724
-23.7292 13.0246 88.931
-23.6824 13.2421 87.138
-23.3964 13.1986 87.4966
-23.0271 13.1986 87.4966
-23.1103 13.1551 87.8552
-23.1935 13.1116 88.2138
-23.2767 13.0681 88.5724
-25.6674 10.9684 89.2896
-25.2981 10.9684 89.2896
-25.4197 11.3039 89.2896
-25.1765 10.633 89.2896
-24.8072 10.633 89.2896
-24.9289 10.9684 89.2896
-25.0505 11.3039 89.2896
-24.438 10.633 89.2896
-24.5596 10.9684 89.2896
-24.6812 11.3039 89.2896
-25.1721 11.6393 89.2896
-24.8029 11.6393 89.2896
-24.1904 10.9684 89.2896
-24.312 11.3039 89.2896
-24.4336 11.6393 89.2896
-25.2937 11.9748 89.2896
-24.9245 11.9748 89.2896
-22.961 10.633 89.2896
-23.0826 10.9684 89.2896
-22.5917 10.633 89.2896
-22.7134 10.9684 89.2896
-22.835 11.3039 89.2896
-22.3441 10.9684 89.2896
-22.4657 11.3039 89.2896
-21.8513 10.4281 88.2138
-21.9345 10.3846 88.5724
-22.9521 6.77633 79.6076
-22.4612 6.4409 79.6076
-22.5828 6.77633 79.6076
-22.7045 7.11177 79.6076
-22.2136 6.77633 79.6076
-23.0737 7.11177 79.6076
-22.8261 7.4472 79.6076
-22.3352 7.11177 79.6076
-22.092 6.4409 79.6076
-21.8443 6.77633 79.6076
-22.4568 7.4472 79.6076
-21.966 7.11177 79.6076
-21.7227 6.4409 79.6076
-21.4751 6.77633 79.6076
-22.0876 7.4472 79.6076
-21.5967 7.11177 79.6076
-21.6011 6.10546 79.6076
-21.3535 6.4409 79.6076
-21.1058 6.77633 79.6076
-21.7183 7.4472 79.6076
-21.2275 7.11177 79.6076
-21.2318 6.10546 79.6076
-20.9842 6.4409 79.6076
-20.7366 6.77633 79.6076
-21.3491 7.4472 79.6076
-20.8582 7.11177 79.6076
-20.9798 7.4472 79.6076
-20.489 7.11177 79.6076
-20.8626 6.10546 79.6076
-20.615 6.4409 79.6076
-20.3673 6.77633 79.6076
-20.6106 7.4472 79.6076
-20.1197 7.11177 79.6076
-20.4933 6.10546 79.6076
-20.2457 6.4409 79.6076
-19.9981 6.77633 79.6076
-20.2413 7.4472 79.6076
-19.7505 7.11177 79.6076
-20.1241 6.10546 79.6076
-19.8765 6.4409 79.6076
-19.6288 6.77633 79.6076
-19.8721 7.4472 79.6076
-19.3812 7.11177 79.6076
-19.7548 6.10546 79.6076
-19.5072 6.4409 79.6076
-19.2596 6.77633 79.6076
-19.012 7.11177 79.6076
-19.3856 6.10546 79.6076
-19.138 6.4409 79.6076
-18.8903 6.77633 79.6076
-18.6427 7.11177 79.6076
-19.0163 6.10546 79.6076
-18.7687 6.4409 79.6076
-18.5211 6.77633 79.6076
-18.2735 7.11177 79.6076
-18.6471 6.10546 79.6076
-18.3995 6.4409 79.6076
-18.1518 6.77633 79.6076
-17.9042 7.11177 79.6076
-17.9874 7.06825 79.9662
-18.0706 7.02474 80.3248
-18.5255 5.77002 79.6076
-18.2778 6.10546 79.6076
-18.361 6.06194 79.9662
-18.4442 6.01843 80.3248
-18.0302 6.4409 79.6076
-18.1134 6.39738 79.9662
-18.1966 6.35387 80.3248
-17.7826 6.77633 79.6076
-17.8658 6.73282 79.9662
-17.949 6.6893 80.3248
-24.2565 13.5341 87.4966
-24.3397 13.4906 87.8552
-23.8873 13.5341 87.4966
-23.9705 13.4906 87.8552
-24.4229 13.447 88.2138
-24.0536 13.447 88.2138
-24.1368 13.4035 88.5724
-23.6012 13.4906 87.8552
-23.6844 13.447 88.2138
-23.7676 13.4035 88.5724
-23.518 13.5341 87.4966
-23.232 13.4906 87.8552
-23.3151 13.447 88.2138
-23.3983 13.4035 88.5724
-22.9459 13.447 88.2138
-25.3813 10.9249 89.6482
-25.0121 10.9249 89.6482
-25.1337 11.2604 89.6482
-24.6428 10.9249 89.6482
-24.7644 11.2604 89.6482
-24.8861 11.5958 89.6482
-22.7473 6.48441 79.249
-22.8689 6.81985 79.249
-22.9905 7.15528 79.249
-22.4996 6.81985 79.249
-22.378 6.48441 79.249
-22.0088 6.48441 79.249
-22.6213 7.15528 79.249
-22.1304 6.81985 79.249
-22.7429 7.49072 79.249
-22.252 7.15528 79.249
-21.7611 6.81985 79.249
-22.3736 7.49072 79.249
-21.8828 7.15528 79.249
-21.8871 6.14897 79.249
-21.6395 6.48441 79.249
-21.3919 6.81985 79.249
-22.0044 7.49072 79.249
-21.5135 7.15528 79.249
-21.5179 6.14897 79.249
-21.2703 6.48441 79.249
-21.0226 6.81985 79.249
-21.6351 7.49072 79.249
-21.1443 7.15528 79.249
-21.1486 6.14897 79.249
-20.901 6.48441 79.249
-20.6534 6.81985 79.249
-21.2659 7.49072 79.249
-20.775 7.15528 79.249
-20.7794 6.14897 79.249
-20.5318 6.48441 79.249
-20.2841 6.81985 79.249
-20.8966 7.49072 79.249
-20.4058 7.15528 79.249
-20.5274 7.49072 79.249
-20.0365 7.15528 79.249
-20.4101 6.14897 79.249
-20.1625 6.48441 79.249
-19.9149 6.81985 79.249
-19.6673 7.15528 79.249
-20.0409 6.14897 79.249
-19.7933 6.48441 79.249
-19.5456 6.81985 79.249
-19.298 7.15528 79.249
-19.6716 6.14897 79.249
-19.424 6.48441 79.249
-19.1764 6.81985 79.249
-18.9288 7.15528 79.249
-19.3024 6.14897 79.249
-19.0548 6.48441 79.249
-18.8071 6.81985 79.249
-18.5595 7.15528 79.249
-18.9331 6.14897 79.249
-18.6855 6.48441 79.249
-18.4379 6.81985 79.249
-18.1903 7.15528 79.249
-18.5639 6.14897 79.249
-18.3163 6.48441 79.249
-18.0686 6.81985 79.249
-18.1946 6.14897 79.249
-17.947 6.48441 79.249
-17.9086 6.10546 79.6076
-17.9918 6.06194 79.9662
-17.7441 6.39738 79.9662
-17.8273 6.35387 80.3248
-24.6258 13.5341 87.4966
-24.709 13.4906 87.8552
-24.3781 13.8695 87.4966
-24.4613 13.826 87.8552
-24.0089 13.8695 87.4966
-24.0921 13.826 87.8552
-24.7921 13.447 88.2138
-24.5445 13.7825 88.2138
-24.1753 13.7825 88.2138
-23.7228 13.826 87.8552
-23.806 13.7825 88.2138
-24.6277 13.739 88.5724
-24.2585 13.739 88.5724
-23.8892 13.739 88.5724
-23.4368 13.7825 88.2138
-22.7857 6.86336 78.8904
-22.2948 6.52792 78.8904
-22.4164 6.86336 78.8904
-22.5381 7.1988 78.8904
-22.0472 6.86336 78.8904
-21.9256 6.52792 78.8904
-21.8039 6.19249 78.8904
-21.5563 6.52792 78.8904
-22.1688 7.1988 78.8904
-21.6779 6.86336 78.8904
-21.7996 7.1988 78.8904
-21.3087 6.86336 78.8904
-21.4303 7.1988 78.8904
-21.4347 6.19249 78.8904
-21.1871 6.52792 78.8904
-20.9394 6.86336 78.8904
-21.0611 7.1988 78.8904
-21.0654 6.19249 78.8904
-20.8178 6.52792 78.8904
-20.5702 6.86336 78.8904
-20.6918 7.1988 78.8904
-20.6962 6.19249 78.8904
-20.4486 6.52792 78.8904
-20.2009 6.86336 78.8904
-20.3226 7.1988 78.8904
-20.3269 6.19249 78.8904
-20.0793 6.52792 78.8904
-19.8317 6.86336 78.8904
-19.9577 6.19249 78.8904
-19.7101 6.52792 78.8904
-19.4624 6.86336 78.8904
-19.5884 6.19249 78.8904
-19.3408 6.52792 78.8904
-19.0932 6.86336 78.8904
-19.2192 6.19249 78.8904
-18.9716 6.52792 78.8904
-18.7239 6.86336 78.8904
-18.8499 6.19249 78.8904
-18.6023 6.52792 78.8904
-18.3547 6.86336 78.8904
-18.4807 6.19249 78.8904
-18.2331 6.52792 78.8904
-24.9118 13.5776 87.138
-24.995 13.5341 87.4966
-25.0782 13.4906 87.8552
-24.6642 13.913 87.138
-24.7474 13.8695 87.4966
-24.8306 13.826 87.8552
-24.9138 13.7825 88.2138
-24.4166 14.2485 87.138
-24.4998 14.2049 87.4966
-24.583 14.1614 87.8552
-24.1305 14.2049 87.4966
-24.2137 14.1614 87.8552
-24.6661 14.1179 88.2138
-24.2969 14.1179 88.2138
-23.7613 14.2049 87.4966
-23.8445 14.1614 87.8552
-23.9276 14.1179 88.2138
-24.997 13.739 88.5724
-24.7493 14.0744 88.5724
-24.3801 14.0744 88.5724
-24.0108 14.0744 88.5724
-24.8325 14.0309 88.931
-24.4633 14.0309 88.931
-21.8424 6.57144 78.5318
-21.964 6.90687 78.5318
-21.5947 6.90687 78.5318
-21.4731 6.57144 78.5318
-21.3515 6.236 78.5318
-21.1039 6.57144 78.5318
-21.2255 6.90687 78.5318
-21.3471 7.24231 78.5318
-20.8562 6.90687 78.5318
-20.9779 7.24231 78.5318
-20.9822 6.236 78.5318
-20.7346 6.57144 78.5318
-20.487 6.90687 78.5318
-20.613 6.236 78.5318
-20.3654 6.57144 78.5318
-18.8884 6.57144 78.5318
-25.1979 13.6211 86.7794
-25.2811 13.5776 87.138
-25.3643 13.5341 87.4966
-25.0334 13.913 87.138
-25.1166 13.8695 87.4966
-25.4475 13.4906 87.8552
-25.1998 13.826 87.8552
-25.283 13.7825 88.2138
-24.7858 14.2485 87.138
-24.869 14.2049 87.4966
-24.9522 14.1614 87.8552
-25.0354 14.1179 88.2138
-25.1186 14.0744 88.5724
-24.5382 14.5839 87.138
-24.6214 14.5404 87.4966
-24.1689 14.5839 87.138
-24.2521 14.5404 87.4966
-24.7046 14.4969 87.8552
-24.3353 14.4969 87.8552
-24.7878 14.4533 88.2138
-24.4185 14.4533 88.2138
-23.8829 14.5404 87.4966
-23.9661 14.4969 87.8552
-24.0493 14.4533 88.2138
-24.871 14.4098 88.5724
-24.5017 14.4098 88.5724
-24.1325 14.4098 88.5724
-23.7997 14.5839 87.138
-23.5136 14.5404 87.4966
-23.5968 14.4969 87.8552
-23.68 14.4533 88.2138
-24.9542 14.3663 88.931
-24.5849 14.3663 88.931
-24.2157 14.3663 88.931
-25.0374 14.3228 89.2896
-24.6681 14.3228 89.2896
-24.2989 14.3228 89.2896
-25.4455 13.2857 86.7794
-25.5671 13.6211 86.7794
-25.6503 13.5776 87.138
-25.3195 13.9565 86.7794
-25.4027 13.913 87.138
-25.5287 13.2421 87.138
-25.7335 13.5341 87.4966
-25.4859 13.8695 87.4966
-25.6119 13.1986 87.4966
-25.8167 13.4906 87.8552
-25.5691 13.826 87.8552
-25.0719 14.292 86.7794
-25.1551 14.2485 87.138
-25.2383 14.2049 87.4966
-25.3215 14.1614 87.8552
-25.4046 14.1179 88.2138
-24.9074 14.5839 87.138
-24.9906 14.5404 87.4966
-25.0738 14.4969 87.8552
-25.157 14.4533 88.2138
-25.2402 14.4098 88.5724
-25.3234 14.3663 88.931
-24.743 14.8758 87.4966
-24.2906 14.9193 87.138
-24.3738 14.8758 87.4966
-24.8262 14.8323 87.8552
-24.457 14.8323 87.8552
-24.2074 14.9628 86.7794
-23.7165 14.6274 86.7794
-23.9213 14.9193 87.138
-24.0045 14.8758 87.4966
-24.0877 14.8323 87.8552
-24.9094 14.7888 88.2138
-24.5401 14.7888 88.2138
-24.1709 14.7888 88.2138
-24.9926 14.7453 88.5724
-24.6233 14.7453 88.5724
-24.2541 14.7453 88.5724
-23.4304 14.5839 87.138
-23.6353 14.8758 87.4966
-23.7185 14.8323 87.8552
-23.8016 14.7888 88.2138
-23.8848 14.7453 88.5724
-25.0758 14.7018 88.931
-24.7065 14.7018 88.931
-24.3373 14.7018 88.931
-23.968 14.7018 88.931
-23.8381 14.9628 86.7794
-23.3472 14.6274 86.7794
-23.5521 14.9193 87.138
-23.266 14.8758 87.4966
-23.3492 14.8323 87.8552
-25.159 14.6582 89.2896
-24.7897 14.6582 89.2896
-24.4205 14.6582 89.2896
-24.0512 14.6582 89.2896
-25.1206 14.2793 89.6482
-25.2422 14.6147 89.6482
-24.7513 14.2793 89.6482
-24.8729 14.6147 89.6482
-24.3821 14.2793 89.6482
-24.5037 14.6147 89.6482
-24.1344 14.6147 89.6482
-25.8147 13.2857 86.7794
-25.8979 13.2421 87.138
-25.9364 13.6211 86.7794
-26.0196 13.5776 87.138
-25.6055 14 86.4208
-25.6887 13.9565 86.7794
-25.7719 13.913 87.138
-26.1028 13.5341 87.4966
-25.8551 13.8695 87.4966
-25.4411 14.292 86.7794
-25.5243 14.2485 87.138
-25.6075 14.2049 87.4966
-25.9811 13.1986 87.4966
-25.9383 13.826 87.8552
-25.6907 14.1614 87.8552
-25.2767 14.5839 87.138
-25.3599 14.5404 87.4966
-25.4431 14.4969 87.8552
-25.5263 14.4533 88.2138
-25.1123 14.8758 87.4966
-25.1955 14.8323 87.8552
-25.2786 14.7888 88.2138
-25.3618 14.7453 88.5724
-25.5282 14.6582 89.2896
-24.9478 15.1677 87.8552
-24.4954 15.2112 87.4966
-24.5786 15.1677 87.8552
-24.329 15.2983 86.7794
-24.4122 15.2548 87.138
-24.0429 15.2548 87.138
-24.1261 15.2112 87.4966
-24.2093 15.1677 87.8552
-25.031 15.1242 88.2138
-24.6618 15.1242 88.2138
-24.2925 15.1242 88.2138
-24.1242 15.0064 86.4208
-23.7549 15.0064 86.4208
-23.9597 15.2983 86.7794
-23.6333 14.6709 86.4208
-23.264 14.6709 86.4208
-23.4689 14.9628 86.7794
-23.6737 15.2548 87.138
-23.7569 15.2112 87.4966
-23.8401 15.1677 87.8552
-23.9233 15.1242 88.2138
-25.1142 15.0807 88.5724
-24.745 15.0807 88.5724
-24.3757 15.0807 88.5724
-25.1974 15.0372 88.931
-24.8282 15.0372 88.931
-24.4589 15.0372 88.931
-24.0897 15.0372 88.931
-23.1828 14.9193 87.138
-23.3876 15.2112 87.4966
-23.4708 15.1677 87.8552
-25.2806 14.9937 89.2896
-24.9114 14.9937 89.2896
-24.5421 14.9937 89.2896
-24.1729 14.9937 89.2896
-23.8036 14.9937 89.2896
-23.8765 15.3418 86.4208
-23.3857 15.0064 86.4208
-23.5905 15.2983 86.7794
-23.0996 14.9628 86.7794
-23.3044 15.2548 87.138
-22.8968 14.8758 87.4966
-23.0184 15.2112 87.4966
-23.1016 15.1677 87.8552
-25.3638 14.9502 89.6482
-24.9946 14.9502 89.6482
-24.6253 14.9502 89.6482
-24.2561 14.9502 89.6482
-23.8868 14.9502 89.6482
-24.9561 14.5712 90.0068
-25.0778 14.9067 90.0068
-24.5869 14.5712 90.0068
-24.7085 14.9067 90.0068
-24.2176 14.5712 90.0068
-24.3393 14.9067 90.0068
-26.3056 13.6211 86.7794
-26.3888 13.5776 87.138
-26.058 13.9565 86.7794
-26.1412 13.913 87.138
-26.2244 13.8695 87.4966
-25.8104 14.292 86.7794
-25.8936 14.2485 87.138
-25.9768 14.2049 87.4966
-26.06 14.1614 87.8552
-25.5627 14.6274 86.7794
-25.6459 14.5839 87.138
-25.7291 14.5404 87.4966
-25.8123 14.4969 87.8552
-25.4815 14.8758 87.4966
-24.2478 15.5467 87.4966
-24.331 15.5032 87.8552
-24.0814 15.6337 86.7794
-24.1646 15.5902 87.138
-23.7953 15.5902 87.138
-23.8785 15.5467 87.4966
-23.9617 15.5032 87.8552
-24.4973 15.4161 88.5724
-23.9193 14.7144 86.0622
-24.041 15.0499 86.0622
-23.6717 15.0499 86.0622
-23.5501 14.7144 86.0622
-23.7933 15.3853 86.0622
-23.3025 15.0499 86.0622
-23.5073 15.3418 86.4208
-23.7121 15.6337 86.7794
-23.4285 14.379 86.0622
-23.1808 14.7144 86.0622
-23.0592 14.379 86.0622
-22.8116 14.7144 86.0622
-23.0164 15.0064 86.4208
-23.2212 15.2983 86.7794
-23.4261 15.5902 87.138
-23.5093 15.5467 87.4966
-23.5925 15.5032 87.8552
-24.9498 15.3726 88.931
-24.5805 15.3726 88.931
-24.2113 15.3726 88.931
-25.4022 15.3291 89.2896
-25.033 15.3291 89.2896
-24.6637 15.3291 89.2896
-24.2945 15.3291 89.2896
-23.9252 15.3291 89.2896
-22.9352 15.2548 87.138
-23.14 15.5467 87.4966
-23.2232 15.5032 87.8552
-25.1162 15.2856 89.6482
-24.7469 15.2856 89.6482
-24.3777 15.2856 89.6482
-24.0084 15.2856 89.6482
-23.4241 15.3853 86.0622
-23.6289 15.6772 86.4208
-22.9332 15.0499 86.0622
-23.138 15.3418 86.4208
-23.3429 15.6337 86.7794
-23.0568 15.5902 87.138
-25.1994 15.2421 90.0068
-24.8301 15.2421 90.0068
-24.4609 15.2421 90.0068
-24.0916 15.2421 90.0068
-26.5104 13.913 87.138
-26.1796 14.292 86.7794
-26.2628 14.2485 87.138
-26.346 14.2049 87.4966
-25.932 14.6274 86.7794
-26.0152 14.5839 87.138
-26.0984 14.5404 87.4966
-26.1816 14.4969 87.8552
-25.7676 14.9193 87.138
-25.8508 14.8758 87.4966
-25.934 14.8323 87.8552
-24.2862 15.9256 87.138
-24.3694 15.8821 87.4966
-24.0001 15.8821 87.4966
-24.0833 15.8386 87.8552
-23.8337 15.9691 86.7794
-23.9169 15.9256 87.138
-23.5477 15.9256 87.138
-23.6309 15.8821 87.4966
-23.7141 15.8386 87.8552
-24.7022 15.7081 88.931
-24.3329 15.7081 88.931
-23.7145 14.4225 85.7036
-23.8362 14.7579 85.7036
-23.9578 15.0934 85.7036
-23.4669 14.7579 85.7036
-23.5885 15.0934 85.7036
-23.7102 15.4288 85.7036
-23.2193 15.0934 85.7036
-23.3453 14.4225 85.7036
-23.0977 14.7579 85.7036
-23.3409 15.4288 85.7036
-23.5457 15.7207 86.0622
-22.85 15.0934 85.7036
-23.0548 15.3853 86.0622
-23.2597 15.6772 86.4208
-23.4645 15.9691 86.7794
-22.976 14.4225 85.7036
-22.7284 14.7579 85.7036
-22.9736 15.6337 86.7794
-23.1784 15.9256 87.138
-23.2616 15.8821 87.4966
-23.3448 15.8386 87.8552
-25.1546 15.6646 89.2896
-24.7854 15.6646 89.2896
-24.4161 15.6646 89.2896
-24.0469 15.6646 89.2896
-24.8686 15.621 89.6482
-24.4993 15.621 89.6482
-24.1301 15.621 89.6482
-24.5825 15.5775 90.0068
-22.9717 15.4288 85.7036
-23.1765 15.7207 86.0622
-22.6856 15.3853 86.0622
-26.3844 14.5839 87.138
-26.4676 14.5404 87.4966
-26.1368 14.9193 87.138
-26.22 14.8758 87.4966
-23.7525 16.2176 87.4966
-23.753 14.8015 85.345
-23.2621 14.466 85.345
-23.8746 15.1369 85.345
-23.3837 14.8015 85.345
-23.5053 15.1369 85.345
-23.0145 14.8015 85.345
-23.627 15.4723 85.345
-23.1361 15.1369 85.345
-23.2577 15.4723 85.345
-22.7668 15.1369 85.345
-22.8885 15.4723 85.345
-23.0933 15.7643 85.7036
-22.6024 15.4288 85.7036
-22.8072 15.7207 86.0622
-23.0101 15.8078 85.345
-22.5192 15.4723 85.345
-22.724 15.7643 85.7036
-22.2332 15.4288 85.7036
-22.438 15.7207 86.0622
-22.436 15.5158 84.9865
-22.6408 15.8078 85.345
-22.8457 16.0997 85.7036
-22.15 15.4723 85.345
-22.3548 15.7643 85.7036
-22.5596 16.0562 86.0622
-22.5576 15.8513 84.9865
-22.7625 16.1432 85.345
-22.0668 15.5158 84.9865
-22.2716 15.8078 85.345
-22.4764 16.0997 85.7036
-21.7807 15.4723 85.345
-21.8639 15.4288 85.7036
-21.9855 15.7643 85.7036
-22.0687 15.7207 86.0622
-22.1903 16.0562 86.0622
-22.4744 15.8948 84.6279
-21.9836 15.5594 84.6279
-22.1884 15.8513 84.9865
-22.6793 16.1867 84.9865
-22.3932 16.1432 85.345
-22.8841 16.4786 85.345
-22.9673 16.4351 85.7036
-22.598 16.4351 85.7036
-21.6975 15.5158 84.9865
-21.9023 15.8078 85.345
-22.1072 16.0997 85.7036
-22.312 16.3916 86.0622
-22.1052 15.8948 84.6279
-22.31 16.1867 84.9865
-22.8009 16.5222 84.9865
-22.5148 16.4786 85.345
-21.8191 15.8513 84.9865
-22.024 16.1432 85.345
-22.2288 16.4351 85.7036
-21.5331 15.8078 85.345
-21.6163 15.7643 85.7036
-21.6995 15.7207 86.0622
-21.7379 16.0997 85.7036
-21.8211 16.0562 86.0622
-21.7827 15.6772 86.4208
-21.9427 16.3916 86.0622
-22.2268 16.2302 84.6279
-21.7359 15.8948 84.6279
-21.9408 16.1867 84.9865
-22.4316 16.5222 84.9865
-22.1456 16.4786 85.345
-22.9225 16.8576 84.9865
-23.0057 16.8141 85.345
-23.0889 16.7706 85.7036
-22.6365 16.8141 85.345
-22.7197 16.7706 85.7036
-22.8028 16.727 86.0622
-22.3504 16.7706 85.7036
-22.4336 16.727 86.0622
-21.6547 16.1432 85.345
-21.8595 16.4351 85.7036
-22.3484 16.5657 84.6279
-22.0624 16.5222 84.9865
-22.8393 16.9011 84.6279
-22.5533 16.8576 84.9865
-22.2672 16.8141 85.345
-21.5715 16.1867 84.9865
-21.7763 16.4786 85.345
-21.9812 16.7706 85.7036
-21.247 15.7643 85.7036
-21.3687 16.0997 85.7036
-21.3302 15.7207 86.0622
-21.4518 16.0562 86.0622
-21.4134 15.6772 86.4208
-21.535 16.0127 86.4208
-21.4903 16.4351 85.7036
-21.5735 16.3916 86.0622
-21.6567 16.3481 86.4208
-21.4966 15.6337 86.7794
-21.6182 15.9691 86.7794
-22.4701 16.9011 84.6279
-22.184 16.8576 84.9865
-21.898 16.8141 85.345
-23.2918 16.8576 84.9865
-23.375 16.8141 85.345
-22.9609 17.2365 84.6279
-23.0441 17.193 84.9865
-23.1273 17.1495 85.345
-22.6749 17.193 84.9865
-22.7581 17.1495 85.345
-23.2105 17.106 85.7036
-22.8413 17.106 85.7036
-22.9245 17.0625 86.0622
-22.3888 17.1495 85.345
-22.472 17.106 85.7036
-22.5552 17.0625 86.0622
-22.1028 17.106 85.7036
-22.1008 16.9011 84.6279
-22.5917 17.2365 84.6279
-22.3056 17.193 84.9865
-22.0196 17.1495 85.345
-21.1254 15.4288 85.7036
-21.2086 15.3853 86.0622
-20.8778 15.7643 85.7036
-20.961 15.7207 86.0622
-20.9994 16.0997 85.7036
-21.0826 16.0562 86.0622
-21.121 16.4351 85.7036
-21.2042 16.3916 86.0622
-21.2918 15.3418 86.4208
-21.0442 15.6772 86.4208
-21.1658 16.0127 86.4208
-21.2874 16.3481 86.4208
-21.375 15.2983 86.7794
-21.1274 15.6337 86.7794
-21.249 15.9691 86.7794
-21.3706 16.3046 86.7794
-21.3258 16.727 86.0622
-21.409 16.6835 86.4208
-21.4922 16.64 86.7794
-21.4538 16.2611 87.138
-22.2224 17.2365 84.6279
-21.9364 17.193 84.9865
-23.4134 17.193 84.9865
-23.4966 17.1495 85.345
-23.0826 17.572 84.6279
-23.1658 17.5285 84.9865
-22.7133 17.572 84.6279
-22.7965 17.5285 84.9865
-23.249 17.4849 85.345
-22.8797 17.4849 85.345
-23.3322 17.4414 85.7036
-22.9629 17.4414 85.7036
-22.4273 17.5285 84.9865
-22.5105 17.4849 85.345
-22.5937 17.4414 85.7036
-23.0461 17.3979 86.0622
-22.6768 17.3979 86.0622
-22.1412 17.4849 85.345
-22.2244 17.4414 85.7036
-22.3076 17.3979 86.0622
-21.8552 17.4414 85.7036
-21.9383 17.3979 86.0622
-22.3441 17.572 84.6279
-22.058 17.5285 84.9865
-21.772 17.4849 85.345
-21.087 15.0499 86.0622
-20.7562 15.4288 85.7036
-20.8393 15.3853 86.0622
-20.9225 15.3418 86.4208
-20.4253 15.8078 85.345
-20.5085 15.7643 85.7036
-20.5917 15.7207 86.0622
-20.6302 16.0997 85.7036
-20.7133 16.0562 86.0622
-20.6749 15.6772 86.4208
-20.7965 16.0127 86.4208
-20.547 16.1432 85.345
-20.7518 16.4351 85.7036
-20.835 16.3916 86.0622
-20.9182 16.3481 86.4208
-20.9566 16.727 86.0622
-21.0398 16.6835 86.4208
-21.0057 15.2983 86.7794
-20.7581 15.6337 86.7794
-20.8797 15.9691 86.7794
-21.0014 16.3046 86.7794
-21.123 16.64 86.7794
-20.8413 15.5902 87.138
-20.9629 15.9256 87.138
-21.0846 16.2611 87.138
-21.5754 16.5965 87.138
-21.2062 16.5965 87.138
-21.5307 17.019 86.4208
-21.1614 17.019 86.4208
-21.6139 16.9755 86.7794
-21.2446 16.9755 86.7794
-21.6971 16.9319 87.138
-21.3278 16.9319 87.138
-21.2894 16.553 87.4966
-22.9181 17.8639 84.9865
-23.0013 17.8204 85.345
-22.5489 17.8639 84.9865
-22.6321 17.8204 85.345
-23.0845 17.7769 85.7036
-22.7153 17.7769 85.7036
-22.7985 17.7334 86.0622
-22.1796 17.8639 84.9865
-22.2628 17.8204 85.345
-22.346 17.7769 85.7036
-22.4292 17.7334 86.0622
-21.8936 17.8204 85.345
-21.9768 17.7769 85.7036
-22.06 17.7334 86.0622
-22.1432 17.6898 86.4208
-21.6075 17.7769 85.7036
-21.6907 17.7334 86.0622
-21.6523 17.3544 86.4208
-21.7739 17.6898 86.4208
-21.5243 17.8204 85.345
-20.7177 15.0499 86.0622
-20.8009 15.0064 86.4208
-20.3037 15.4723 85.345
-20.3869 15.4288 85.7036
-20.4701 15.3853 86.0622
-20.5533 15.3418 86.4208
-20.6365 15.2983 86.7794
-20.2205 15.5158 84.9865
-20.3421 15.8513 84.9865
-20.4638 16.1867 84.9865
-19.9729 15.8513 84.9865
-20.0561 15.8078 85.345
-20.1393 15.7643 85.7036
-20.1777 16.1432 85.345
-20.2609 16.0997 85.7036
-20.2225 15.7207 86.0622
-20.3441 16.0562 86.0622
-20.3057 15.6772 86.4208
-20.4273 16.0127 86.4208
-20.3825 16.4351 85.7036
-20.4657 16.3916 86.0622
-20.5489 16.3481 86.4208
-20.3889 15.6337 86.7794
-20.5105 15.9691 86.7794
-20.6321 16.3046 86.7794
-20.0945 16.1867 84.9865
-20.2993 16.4786 85.345
-20.5873 16.727 86.0622
-20.6705 16.6835 86.4208
-20.7537 16.64 86.7794
-20.7922 17.019 86.4208
-20.8754 16.9755 86.7794
-20.5937 15.9256 87.138
-20.7153 16.2611 87.138
-20.8369 16.5965 87.138
-20.9586 16.9319 87.138
-21.7803 16.8884 87.4966
-21.411 16.8884 87.4966
-21.0418 16.8884 87.4966
-21.7355 17.3109 86.7794
-21.283 17.3544 86.4208
-21.3662 17.3109 86.7794
-20.9138 17.3544 86.4208
-20.997 17.3109 86.7794
-21.8187 17.2674 87.138
-21.4494 17.2674 87.138
-21.0802 17.2674 87.138
-21.5326 17.2239 87.4966
-21.1634 17.2239 87.4966
-22.7537 18.1558 85.345
-22.8369 18.1123 85.7036
-22.3845 18.1558 85.345
-22.4677 18.1123 85.7036
-22.5508 18.0688 86.0622
-22.0152 18.1558 85.345
-22.0984 18.1123 85.7036
-22.1816 18.0688 86.0622
-22.2648 18.0253 86.4208
-21.646 18.1558 85.345
-21.7292 18.1123 85.7036
-21.8123 18.0688 86.0622
-21.8955 18.0253 86.4208
-21.8571 17.6463 86.7794
-21.9787 17.9818 86.7794
-21.2383 17.7769 85.7036
-21.3215 17.7334 86.0622
-21.3599 18.1123 85.7036
-21.4431 18.0688 86.0622
-21.4047 17.6898 86.4208
-21.5263 18.0253 86.4208
-21.4879 17.6463 86.7794
-21.6095 17.9818 86.7794
-21.2767 18.1558 85.345
-19.9345 15.4723 85.345
-20.0177 15.4288 85.7036
-20.1008 15.3853 86.0622
-20.2161 16.5222 84.9865
-19.6036 15.8513 84.9865
-19.6868 15.8078 85.345
-19.7253 16.1867 84.9865
-19.8085 16.1432 85.345
-19.77 15.7643 85.7036
-19.8917 16.0997 85.7036
-19.8532 15.7207 86.0622
-19.9748 16.0562 86.0622
-19.9301 16.4786 85.345
-20.0133 16.4351 85.7036
-20.0965 16.3916 86.0622
-20.058 16.0127 86.4208
-20.1797 16.3481 86.4208
-20.1349 16.7706 85.7036
-20.2181 16.727 86.0622
-20.3013 16.6835 86.4208
-20.3845 16.64 86.7794
-19.8469 16.5222 84.9865
-20.0517 16.8141 85.345
-20.5061 16.9755 86.7794
-20.5893 16.9319 87.138
-20.6277 17.3109 86.7794
-20.7109 17.2674 87.138
-20.6725 16.8884 87.4966
-20.7941 17.2239 87.4966
-21.2466 17.1804 87.8552
-21.5711 17.6028 87.138
-21.0354 17.6898 86.4208
-21.1186 17.6463 86.7794
-21.2018 17.6028 87.138
-20.7494 17.6463 86.7794
-20.8326 17.6028 87.138
-21.6543 17.5593 87.4966
-21.285 17.5593 87.4966
-20.9158 17.5593 87.4966
-20.999 17.5158 87.8552
-22.22 18.4477 85.7036
-22.3032 18.4042 86.0622
-22.3864 18.3607 86.4208
-21.8508 18.4477 85.7036
-21.934 18.4042 86.0622
-22.0172 18.3607 86.4208
-22.1004 18.3172 86.7794
-21.3983 18.4913 85.345
-21.4815 18.4477 85.7036
-21.5647 18.4042 86.0622
-21.6479 18.3607 86.4208
-21.7311 18.3172 86.7794
-20.9907 18.1123 85.7036
-21.0738 18.0688 86.0622
-21.157 18.0253 86.4208
-21.1123 18.4477 85.7036
-21.1955 18.4042 86.0622
-21.2787 18.3607 86.4208
-21.2402 17.9818 86.7794
-21.3234 17.9383 87.138
-19.5652 15.4723 85.345
-19.6484 15.4288 85.7036
-19.2344 15.8513 84.9865
-19.3176 15.8078 85.345
-19.356 16.1867 84.9865
-19.4392 16.1432 85.345
-19.4008 15.7643 85.7036
-19.5224 16.0997 85.7036
-19.4776 16.5222 84.9865
-19.5608 16.4786 85.345
-19.644 16.4351 85.7036
-19.484 15.7207 86.0622
-19.6056 16.0562 86.0622
-19.7272 16.3916 86.0622
-19.6888 16.0127 86.4208
-19.8104 16.3481 86.4208
-19.6825 16.8141 85.345
-19.7657 16.7706 85.7036
-19.8488 16.727 86.0622
-20.2201 16.9319 87.138
-19.5993 16.8576 84.9865
-20.2585 17.3109 86.7794
-20.3417 17.2674 87.138
-20.3033 16.8884 87.4966
-20.4249 17.2239 87.4966
-20.3801 17.6463 86.7794
-20.4633 17.6028 87.138
-20.5465 17.5593 87.4966
-20.5081 17.1804 87.8552
-20.6297 17.5158 87.8552
-21.4066 17.8947 87.4966
-20.9542 17.9383 87.138
-21.0374 17.8947 87.4966
-20.5849 17.9383 87.138
-20.6681 17.8947 87.4966
-20.7513 17.8512 87.8552
-22.4248 18.7397 86.0622
-21.9724 18.7832 85.7036
-22.0556 18.7397 86.0622
-22.508 18.6962 86.4208
-22.1388 18.6962 86.4208
-22.5912 18.6526 86.7794
-22.222 18.6526 86.7794
-21.6032 18.7832 85.7036
-21.6863 18.7397 86.0622
-21.7695 18.6962 86.4208
-21.8527 18.6526 86.7794
-21.3171 18.7397 86.0622
-21.4003 18.6962 86.4208
-19.07 16.1432 85.345
-19.1532 16.0997 85.7036
-19.1916 16.4786 85.345
-19.2748 16.4351 85.7036
-19.2363 16.0562 86.0622
-19.358 16.3916 86.0622
-19.3132 16.8141 85.345
-19.3964 16.7706 85.7036
-19.4796 16.727 86.0622
-19.934 16.8884 87.4966
-19.9724 17.2674 87.138
-20.0556 17.2239 87.4966
-20.0109 17.6463 86.7794
-20.0941 17.6028 87.138
-20.1773 17.5593 87.4966
-20.1388 17.1804 87.8552
-20.2605 17.5158 87.8552
-20.1325 17.9818 86.7794
-20.2157 17.9383 87.138
-20.2989 17.8947 87.4966
-20.3821 17.8512 87.8552
-20.222 17.1368 88.2138
-20.3436 17.4723 88.2138
-20.4653 17.8077 88.2138
-20.3373 18.2737 87.138
-20.4205 18.2302 87.4966
-20.5037 18.1867 87.8552
-22.7941 18.7397 86.0622
-22.8773 18.6962 86.4208
-22.4633 19.1186 85.7036
-22.5465 19.0751 86.0622
-22.6297 19.0316 86.4208
-22.1772 19.0751 86.0622
-22.2604 19.0316 86.4208
-22.094 19.1186 85.7036
-21.808 19.0751 86.0622
-21.8912 19.0316 86.4208
-22.9605 18.6526 86.7794
-22.7129 18.9881 86.7794
-22.3436 18.9881 86.7794
-21.9744 18.9881 86.7794
-23.0437 18.6091 87.138
-22.6744 18.6091 87.138
-22.7961 18.9446 87.138
-22.4268 18.9446 87.138
-22.0576 18.9446 87.138
-19.6864 17.2239 87.4966
-19.7696 17.1804 87.8552
-19.6032 17.2674 87.138
-19.7248 17.6028 87.138
-19.808 17.5593 87.4966
-19.8912 17.5158 87.8552
-19.7632 17.9818 86.7794
-19.8464 17.9383 87.138
-19.9296 17.8947 87.4966
-20.0128 17.8512 87.8552
-19.8528 17.1368 88.2138
-19.9744 17.4723 88.2138
-20.096 17.8077 88.2138
-19.9681 18.2737 87.138
-20.0513 18.2302 87.4966
-20.1345 18.1867 87.8552
-22.9157 19.0751 86.0622
-22.9989 19.0316 86.4208
-23.0821 18.9881 86.7794
-22.5849 19.4541 85.7036
-22.6681 19.4105 86.0622
-22.2157 19.4541 85.7036
-22.2988 19.4105 86.0622
-22.7513 19.367 86.4208
-22.382 19.367 86.4208
-22.8345 19.3235 86.7794
-22.4652 19.3235 86.7794
-21.9296 19.4105 86.0622
-22.0128 19.367 86.4208
-22.096 19.3235 86.7794
-21.7267 19.3235 86.7794
-23.4129 18.6091 87.138
-23.1653 18.9446 87.138
-22.9177 19.28 87.138
-22.5484 19.28 87.138
-22.1792 19.28 87.138
-23.4961 18.5656 87.4966
-23.1269 18.5656 87.4966
-23.2485 18.901 87.4966
-22.8793 18.901 87.4966
-23.0009 19.2365 87.4966
-22.6316 19.2365 87.4966
-19.3171 17.2239 87.4966
-19.4003 17.1804 87.8552
-19.4388 17.5593 87.4966
-19.522 17.5158 87.8552
-19.6051 17.4723 88.2138
-19.3556 17.6028 87.138
-19.4772 17.9383 87.138
-19.5604 17.8947 87.4966
-19.6436 17.8512 87.8552
-19.7268 17.8077 88.2138
-19.5988 18.2737 87.138
-19.682 18.2302 87.4966
-19.7652 18.1867 87.8552
-19.8484 18.1431 88.2138
-19.8036 18.5656 87.4966
-19.8868 18.5221 87.8552
-22.9542 19.4541 85.7036
-23.0373 19.4105 86.0622
-23.1205 19.367 86.4208
-23.4514 18.9881 86.7794
-23.2037 19.3235 86.7794
-23.5346 18.9446 87.138
-23.2869 19.28 87.138
-22.6233 19.833 85.345
-22.7065 19.7895 85.7036
-22.7897 19.746 86.0622
-22.3373 19.7895 85.7036
-22.4205 19.746 86.0622
-22.8729 19.7025 86.4208
-22.5037 19.7025 86.4208
-22.2541 19.833 85.345
-21.968 19.7895 85.7036
-22.0512 19.746 86.0622
-22.1344 19.7025 86.4208
-22.9561 19.6589 86.7794
-22.5869 19.6589 86.7794
-22.2176 19.6589 86.7794
-23.0393 19.6154 87.138
-22.6701 19.6154 87.138
-22.3008 19.6154 87.138
-21.7652 19.7025 86.4208
-21.8484 19.6589 86.7794
-21.9316 19.6154 87.138
-23.8654 18.5656 87.4966
-23.6178 18.901 87.4966
-23.3701 19.2365 87.4966
-23.1225 19.5719 87.4966
-22.7533 19.5719 87.4966
-23.5793 18.5221 87.8552
-23.701 18.8575 87.8552
-23.2101 18.5221 87.8552
-23.3317 18.8575 87.8552
-22.9625 18.8575 87.8552
-23.4533 19.193 87.8552
-23.0841 19.193 87.8552
-23.2057 19.5284 87.8552
-19.1911 17.8947 87.4966
-19.2743 17.8512 87.8552
-19.3128 18.2302 87.4966
-19.396 18.1867 87.8552
-23.0758 19.7895 85.7036
-23.159 19.746 86.0622
-23.2422 19.7025 86.4208
-23.3254 19.6589 86.7794
-23.9038 18.9446 87.138
-23.6562 19.28 87.138
-23.4086 19.6154 87.138
-23.987 18.901 87.4966
-23.7394 19.2365 87.4966
-23.4918 19.5719 87.4966
-22.6618 20.212 84.9865
-22.745 20.1684 85.345
-22.8282 20.1249 85.7036
-22.3757 20.1684 85.345
-22.4589 20.1249 85.7036
-22.9113 20.0814 86.0622
-22.5421 20.0814 86.0622
-22.9945 20.0379 86.4208
-22.6253 20.0379 86.4208
-22.0897 20.1249 85.7036
-22.1728 20.0814 86.0622
-22.256 20.0379 86.4208
-22.7085 19.9944 86.7794
-22.3392 19.9944 86.7794
-22.2925 20.212 84.9865
-22.0065 20.1684 85.345
-21.8868 20.0379 86.4208
-21.97 19.9944 86.7794
-22.7917 19.9509 87.138
-22.4224 19.9509 87.138
-23.2441 19.9074 87.4966
-23.8226 19.193 87.8552
-23.575 19.5284 87.8552
-23.3273 19.8638 87.8552
-23.4149 18.814 88.2138
-23.5365 19.1495 88.2138
-23.1673 19.1495 88.2138
-23.6581 19.4849 88.2138
-23.2889 19.4849 88.2138
-23.4105 19.8203 88.2138
-23.1142 20.1684 85.345
-23.1974 20.1249 85.7036
-23.7778 19.6154 87.138
-24.1086 19.2365 87.4966
-23.861 19.5719 87.4966
-23.6134 19.9074 87.4966
-23.9442 19.5284 87.8552
-23.6966 19.8638 87.8552
-22.8666 20.5039 85.345
-22.4141 20.5474 84.9865
-22.4973 20.5039 85.345
-22.9498 20.4604 85.7036
-22.5805 20.4604 85.7036
-23.033 20.4168 86.0622
-22.6637 20.4168 86.0622
-22.1281 20.5039 85.345
-22.2113 20.4604 85.7036
-22.2945 20.4168 86.0622
-22.7469 20.3733 86.4208
-22.3777 20.3733 86.4208
-21.842 20.4604 85.7036
-21.9252 20.4168 86.0622
-22.0084 20.3733 86.4208
-22.0449 20.5474 84.9865
-21.7588 20.5039 85.345
-23.3658 20.2428 87.4966
-23.449 20.1993 87.8552
-24.0274 19.4849 88.2138
-23.7798 19.8203 88.2138
-23.5321 20.1558 88.2138
-24.2303 19.5719 87.4966
-23.9826 19.9074 87.4966
-24.3135 19.5284 87.8552
-24.0658 19.8638 87.8552
-23.735 20.2428 87.4966
-23.8182 20.1993 87.8552
-24.149 19.8203 88.2138
-23.9014 20.1558 88.2138
-22.9882 20.8393 85.345
-23.0714 20.7958 85.7036
-22.619 20.8393 85.345
-22.7022 20.7958 85.7036
-22.2497 20.8393 85.345
-22.3329 20.7958 85.7036
-23.1546 20.7523 86.0622
-22.7853 20.7523 86.0622
-22.4161 20.7523 86.0622
-23.2378 20.7088 86.4208
-22.8685 20.7088 86.4208
-22.4993 20.7088 86.4208
-21.8805 20.8393 85.345
-21.9637 20.7958 85.7036
-22.0468 20.7523 86.0622
-22.13 20.7088 86.4208
-23.4874 20.5782 87.4966
-23.5706 20.5347 87.8552
-23.6538 20.4912 88.2138
-24.2322 19.7768 88.5724
-23.9846 20.1123 88.5724
-23.737 20.4477 88.5724
-24.3519 19.9074 87.4966
-24.4351 19.8638 87.8552
-24.1043 20.2428 87.4966
-24.1875 20.1993 87.8552
-24.5183 19.8203 88.2138
-24.2706 20.1558 88.2138
-23.8566 20.5782 87.4966
-23.9398 20.5347 87.8552
-24.023 20.4912 88.2138
-24.3538 20.1123 88.5724
-24.1062 20.4477 88.5724
-23.193 21.1312 85.7036
-22.7406 21.1747 85.345
-22.8238 21.1312 85.7036
-23.2762 21.0877 86.0622
-22.907 21.0877 86.0622
-22.3713 21.1747 85.345
-22.4545 21.1312 85.7036
-22.5377 21.0877 86.0622
-22.0853 21.1312 85.7036
-22.1685 21.0877 86.0622
-23.3594 21.0442 86.4208
-22.9902 21.0442 86.4208
-22.6209 21.0442 86.4208
-22.2517 21.0442 86.4208
-23.4426 21.0007 86.7794
-23.0734 21.0007 86.7794
-23.5258 20.9572 87.138
-23.609 20.9137 87.4966
-24.4735 20.2428 87.4966
-24.5567 20.1993 87.8552
-24.6399 20.1558 88.2138
-24.2259 20.5782 87.4966
-24.3091 20.5347 87.8552
-24.3923 20.4912 88.2138
-24.4755 20.4477 88.5724
-23.8951 20.9572 87.138
-23.9783 20.9137 87.4966
-24.0615 20.8702 87.8552
-24.1446 20.8266 88.2138
-23.6455 21.0877 86.0622
-23.3147 21.4667 85.7036
-23.3978 21.4232 86.0622
-22.9454 21.4667 85.7036
-23.0286 21.4232 86.0622
-22.5762 21.4667 85.7036
-22.6593 21.4232 86.0622
-23.481 21.3796 86.4208
-23.1118 21.3796 86.4208
-22.7425 21.3796 86.4208
-22.2901 21.4232 86.0622
-23.5642 21.3361 86.7794
-23.195 21.3361 86.7794
-22.8257 21.3361 86.7794
-23.6474 21.2926 87.138
-24.5951 20.5782 87.4966
-24.6783 20.5347 87.8552
-24.7615 20.4912 88.2138
-24.3475 20.9137 87.4966
-24.4307 20.8702 87.8552
-24.5139 20.8266 88.2138
-23.9335 21.3361 86.7794
-24.0167 21.2926 87.138
-24.0999 21.2491 87.4966
-24.1831 21.2056 87.8552
-23.6839 21.4667 85.7036
-23.7671 21.4232 86.0622
-23.8503 21.3796 86.4208
-23.3531 21.8456 85.345
-23.4363 21.8021 85.7036
-23.5195 21.7586 86.0622
-23.067 21.8021 85.7036
-23.1502 21.7586 86.0622
-23.6027 21.7151 86.4208
-23.2334 21.7151 86.4208
-22.9838 21.8456 85.345
-22.6978 21.8021 85.7036
-22.781 21.7586 86.0622
-22.8642 21.7151 86.4208
-22.4117 21.7586 86.0622
-22.4949 21.7151 86.4208
-23.6859 21.6716 86.7794
-23.3166 21.6716 86.7794
-23.7691 21.6281 87.138
-24.3859 21.2926 87.138
-24.4691 21.2491 87.4966
-23.9719 21.7151 86.4208
-24.0551 21.6716 86.7794
-24.1383 21.6281 87.138
-24.2215 21.5845 87.4966
-24.3047 21.541 87.8552
-23.8055 21.8021 85.7036
-23.8887 21.7586 86.0622
-23.3915 22.2246 84.9865
-23.4747 22.1811 85.345
-23.5579 22.1375 85.7036
-23.1055 22.1811 85.345
-23.1887 22.1375 85.7036
-23.6411 22.094 86.0622
-23.2718 22.094 86.0622
-23.7243 22.0505 86.4208
-23.355 22.0505 86.4208
-22.8194 22.1375 85.7036
-22.9026 22.094 86.0622
-22.9858 22.0505 86.4208
-23.8075 22.007 86.7794
-23.4382 22.007 86.7794
-23.0223 22.2246 84.9865
-22.7362 22.1811 85.345
-22.5333 22.094 86.0622
-22.6165 22.0505 86.4208
-23.8907 21.9635 87.138
-24.5076 21.6281 87.138
-24.2599 21.9635 87.138
-24.3431 21.92 87.4966
-24.4263 21.8765 87.8552
-23.844 22.1811 85.345
-23.3083 22.2681 84.6279
-23.4299 22.6035 84.6279
-23.5131 22.56 84.9865
-23.5963 22.5165 85.345
-22.9391 22.2681 84.6279
-23.1439 22.56 84.9865
-23.2271 22.5165 85.345
-23.6795 22.473 85.7036
-23.3103 22.473 85.7036
-23.7627 22.4295 86.0622
-23.3935 22.4295 86.0622
-22.653 22.2246 84.9865
-22.8578 22.5165 85.345
-22.941 22.473 85.7036
-23.0242 22.4295 86.0622
-23.4767 22.386 86.4208
-23.1074 22.386 86.4208
-22.5718 22.473 85.7036
-23.0607 22.6035 84.6279
-22.5698 22.2681 84.6279
-22.7746 22.56 84.9865
-23.8824 22.56 84.9865
-23.9656 22.5165 85.345
-23.5944 22.3116 84.2693
-23.1035 21.9762 84.2693
-23.2251 22.3116 84.2693
-23.3467 22.647 84.2693
-22.8559 22.3116 84.2693
-23.4684 22.9825 84.2693
-23.5516 22.939 84.6279
-23.6348 22.8954 84.9865
-22.9775 22.647 84.2693
-23.1823 22.939 84.6279
-23.2655 22.8954 84.9865
-23.718 22.8519 85.345
-23.3487 22.8519 85.345
-23.8012 22.8084 85.7036
-23.4319 22.8084 85.7036
-22.7342 21.9762 84.2693
-22.4866 22.3116 84.2693
-22.6914 22.6035 84.6279
-22.8963 22.8954 84.9865
-22.9795 22.8519 85.345
-23.0627 22.8084 85.7036
-23.8843 22.7649 86.0622
-23.5151 22.7649 86.0622
-23.1458 22.7649 86.0622
-22.6102 22.8519 85.345
-22.6934 22.8084 85.7036
-23.0991 22.9825 84.2693
-22.6082 22.647 84.2693
-22.8131 22.939 84.6279
-22.3222 22.6035 84.6279
-22.527 22.8954 84.9865
-23.5112 22.3551 83.9107
-23.6328 22.6905 83.9107
-23.1419 22.3551 83.9107
-23.0203 22.0197 83.9107
-22.651 22.0197 83.9107
-23.2635 22.6905 83.9107
-22.7727 22.3551 83.9107
-23.3852 23.026 83.9107
-22.8943 22.6905 83.9107
-22.4034 22.3551 83.9107
-23.0159 23.026 83.9107
-23.2207 23.3179 84.2693
-23.3039 23.2744 84.6279
-23.7564 23.2309 84.9865
-23.3871 23.2309 84.9865
-23.8396 23.1874 85.345
-23.4703 23.1874 85.345
-22.525 22.6905 83.9107
-22.7299 22.9825 84.2693
-22.9347 23.2744 84.6279
-23.0179 23.2309 84.9865
-23.1011 23.1874 85.345
-23.9228 23.1439 85.7036
-23.5535 23.1439 85.7036
-23.1843 23.1439 85.7036
-24.006 23.1003 86.0622
-23.6367 23.1003 86.0622
-23.2675 23.1003 86.0622
-22.2818 22.0197 83.9107
-22.0342 22.3551 83.9107
-22.239 22.647 84.2693
-22.4438 22.939 84.6279
-22.6486 23.2309 84.9865
-22.7318 23.1874 85.345
-22.815 23.1439 85.7036
-22.8982 23.1003 86.0622
-23.7199 23.0568 86.4208
-23.1375 23.3614 83.9107
-22.6467 23.026 83.9107
-22.8515 23.3179 84.2693
-22.1558 22.6905 83.9107
-22.3606 22.9825 84.2693
-22.5654 23.2744 84.6279
-23.428 22.3986 83.5521
-23.5496 22.7341 83.5521
-23.0587 22.3986 83.5521
-23.1804 22.7341 83.5521
-22.9371 22.0632 83.5521
-22.6895 22.3986 83.5521
-22.5679 22.0632 83.5521
-23.302 23.0695 83.5521
-22.8111 22.7341 83.5521
-22.3202 22.3986 83.5521
-22.9327 23.0695 83.5521
-22.4419 22.7341 83.5521
-23.0544 23.4049 83.5521
-22.5635 23.0695 83.5521
-22.7683 23.3614 83.9107
-23.5088 23.5663 84.9865
-23.1395 23.5663 84.9865
-23.9612 23.5228 85.345
-23.592 23.5228 85.345
-23.2227 23.5228 85.345
-24.0444 23.4793 85.7036
-23.6752 23.4793 85.7036
-23.3059 23.4793 85.7036
-22.0726 22.7341 83.5521
-22.2774 23.026 83.9107
-22.4822 23.3179 84.2693
-22.8535 23.5228 85.345
-22.9367 23.4793 85.7036
-24.1276 23.4358 86.0622
-23.7583 23.4358 86.0622
-23.3891 23.4358 86.0622
-23.0198 23.4358 86.0622
-24.2108 23.3923 86.4208
-23.8415 23.3923 86.4208
-23.4723 23.3923 86.4208
-22.6851 23.4049 83.5521
-22.399 23.3614 83.9107
-22.7279 22.7776 83.1935
-23.6304 23.9018 84.9865
-23.7136 23.8582 85.345
-23.2611 23.9018 84.9865
-23.3443 23.8582 85.345
-22.9751 23.8582 85.345
-24.4137 23.4793 85.7036
-24.0828 23.8582 85.345
-24.166 23.8147 85.7036
-23.7968 23.8147 85.7036
-23.4275 23.8147 85.7036
-23.0583 23.8147 85.7036
-24.2492 23.7712 86.0622
-23.88 23.7712 86.0622
-23.5107 23.7712 86.0622
-23.1415 23.7712 86.0622
-24.3324 23.7277 86.4208
-23.9632 23.7277 86.4208
-23.5939 23.7277 86.4208
-23.2247 23.7277 86.4208
-23.6771 23.6842 86.7794
-23.8352 24.1937 85.345
-23.466 24.1937 85.345
-23.9184 24.1502 85.7036
-23.5492 24.1502 85.7036
-23.0967 24.1937 85.345
-23.1799 24.1502 85.7036
-22.8107 24.1502 85.7036
-24.2045 24.1937 85.345
-24.2877 24.1502 85.7036
-24.3708 24.1066 86.0622
-24.0016 24.1066 86.0622
-23.6323 24.1066 86.0622
-23.2631 24.1066 86.0622
-22.8938 24.1066 86.0622
-24.0848 24.0631 86.4208
-23.7155 24.0631 86.4208
-23.3463 24.0631 86.4208
-23.7987 24.0196 86.7794
-23.9568 24.5291 85.345
-24.04 24.4856 85.7036
-23.5876 24.5291 85.345
-23.6708 24.4856 85.7036
-23.3015 24.4856 85.7036
-24.1232 24.4421 86.0622
-23.754 24.4421 86.0622
-23.3847 24.4421 86.0622
-23.8372 24.3986 86.4208
-23.4679 24.3986 86.4208
